{
    "document_id": "05f4ea4e01aee5d344d16018df1212e14c7f0849",
    "metadata": {
        "title": "LOSARTAN POTASSIUM",
        "url": ""
    },
    "contexts": [
        {
            "section": "BOXED WARNING",
            "context_id": "05f4ea4e01aee5d344d16018df1212e14c7f0849-C000",
            "text": "image description",
            "sentences": [
                {
                    "sentence_id": "05f4ea4e01aee5d344d16018df1212e14c7f0849-C000-S000",
                    "start": 0,
                    "end": 17
                }
            ]
        },
        {
            "section": "DESCRIPTION",
            "context_id": "05f4ea4e01aee5d344d16018df1212e14c7f0849-C001",
            "text": "image description",
            "sentences": [
                {
                    "sentence_id": "05f4ea4e01aee5d344d16018df1212e14c7f0849-C001-S000",
                    "start": 0,
                    "end": 17
                }
            ]
        },
        {
            "section": "CLINICAL PHARMACOLOGY",
            "context_id": "05f4ea4e01aee5d344d16018df1212e14c7f0849-C002",
            "text": "\n                \n                  ",
            "sentences": [
                {
                    "sentence_id": "05f4ea4e01aee5d344d16018df1212e14c7f0849-C002-S000",
                    "start": 0,
                    "end": 36
                }
            ]
        },
        {
            "section": " INDICATIONS AND USAGE ",
            "context_id": "05f4ea4e01aee5d344d16018df1212e14c7f0849-C003",
            "text": "\n                \n                  ",
            "sentences": [
                {
                    "sentence_id": "05f4ea4e01aee5d344d16018df1212e14c7f0849-C003-S000",
                    "start": 0,
                    "end": 36
                }
            ]
        },
        {
            "section": "CONTRAINDICATIONS",
            "context_id": "05f4ea4e01aee5d344d16018df1212e14c7f0849-C004",
            "text": "\n                \n                  ",
            "sentences": [
                {
                    "sentence_id": "05f4ea4e01aee5d344d16018df1212e14c7f0849-C004-S000",
                    "start": 0,
                    "end": 36
                }
            ]
        },
        {
            "section": " WARNINGS ",
            "context_id": "05f4ea4e01aee5d344d16018df1212e14c7f0849-C005",
            "text": "\n                \n                  ",
            "sentences": [
                {
                    "sentence_id": "05f4ea4e01aee5d344d16018df1212e14c7f0849-C005-S000",
                    "start": 0,
                    "end": 36
                }
            ]
        },
        {
            "section": "PRECAUTIONS",
            "context_id": "05f4ea4e01aee5d344d16018df1212e14c7f0849-C006",
            "text": "\n                \n                  ",
            "sentences": [
                {
                    "sentence_id": "05f4ea4e01aee5d344d16018df1212e14c7f0849-C006-S000",
                    "start": 0,
                    "end": 36
                }
            ]
        },
        {
            "section": " ADVERSE REACTIONS ",
            "context_id": "05f4ea4e01aee5d344d16018df1212e14c7f0849-C007",
            "text": "\n                \n                  ",
            "sentences": [
                {
                    "sentence_id": "05f4ea4e01aee5d344d16018df1212e14c7f0849-C007-S000",
                    "start": 0,
                    "end": 36
                }
            ]
        },
        {
            "section": " OVERDOSAGE ",
            "context_id": "05f4ea4e01aee5d344d16018df1212e14c7f0849-C008",
            "text": "\n                \n                  ",
            "sentences": [
                {
                    "sentence_id": "05f4ea4e01aee5d344d16018df1212e14c7f0849-C008-S000",
                    "start": 0,
                    "end": 36
                }
            ]
        },
        {
            "section": "DOSAGE AND ADMINISTRATION",
            "context_id": "05f4ea4e01aee5d344d16018df1212e14c7f0849-C009",
            "text": "\n                \n                  ",
            "sentences": [
                {
                    "sentence_id": "05f4ea4e01aee5d344d16018df1212e14c7f0849-C009-S000",
                    "start": 0,
                    "end": 36
                }
            ]
        },
        {
            "section": " HOW SUPPLIED ",
            "context_id": "05f4ea4e01aee5d344d16018df1212e14c7f0849-C010",
            "text": "\n                \n                  ",
            "sentences": [
                {
                    "sentence_id": "05f4ea4e01aee5d344d16018df1212e14c7f0849-C010-S000",
                    "start": 0,
                    "end": 36
                }
            ]
        },
        {
            "section": "PATIENT INFORMATION",
            "context_id": "05f4ea4e01aee5d344d16018df1212e14c7f0849-C011",
            "text": "\n                \n                  ",
            "sentences": [
                {
                    "sentence_id": "05f4ea4e01aee5d344d16018df1212e14c7f0849-C011-S000",
                    "start": 0,
                    "end": 36
                }
            ]
        },
        {
            "section": "PRINCIPAL DISPLAY PANEL",
            "context_id": "05f4ea4e01aee5d344d16018df1212e14c7f0849-C012",
            "text": "image description",
            "sentences": [
                {
                    "sentence_id": "05f4ea4e01aee5d344d16018df1212e14c7f0849-C012-S000",
                    "start": 0,
                    "end": 17
                }
            ]
        }
    ]
}