{
    "document_id": "1e70c19ffe4b7f50bfba1d3f9b836243fe6bc996",
    "metadata": {
        "title": "Print Resources",
        "url": "https://www.cdc.gov/coronavirus/2019-ncov/communication/factsheets.html"
    },
    "contexts": [
        {
            "section": "What you need to know",
            "context_id": "1e70c19ffe4b7f50bfba1d3f9b836243fe6bc996-C000",
            "text": "Coronavirus disease 2019 is a new disease that causes respiratory illness in people and can spread from person to person. This virus was first identified during an investigation into an outbreak in Wuhan, China.8.5?11Spanishpdf icon",
            "sentences": [
                {
                    "sentence_id": "1e70c19ffe4b7f50bfba1d3f9b836243fe6bc996-C000-S000",
                    "start": 0,
                    "end": 121
                },
                {
                    "sentence_id": "1e70c19ffe4b7f50bfba1d3f9b836243fe6bc996-C000-S001",
                    "start": 122,
                    "end": 232
                }
            ]
        },
        {
            "section": "How to Protect Yourself and Others",
            "context_id": "1e70c19ffe4b7f50bfba1d3f9b836243fe6bc996-C001",
            "text": "Protect yourself and others from COVID-19 by learning how it spreads and taking everyday preventive actions.8.5?11",
            "sentences": [
                {
                    "sentence_id": "1e70c19ffe4b7f50bfba1d3f9b836243fe6bc996-C001-S000",
                    "start": 0,
                    "end": 114
                }
            ]
        },
        {
            "section": "Stop the spread of germs poster",
            "context_id": "1e70c19ffe4b7f50bfba1d3f9b836243fe6bc996-C002",
            "text": "Help prevent the spread of respiratory diseases, like coronavirus disease 2019 by avoiding close contact with people who are sick; covering cough and sneeze; avoiding touching eyes, nose and mouth; and washing your hands with soap and water.8.5 x 11Spanishpdf icon Frenchpdf icon Simplified Chinesepdf icon Arabicpdf icon Daripdf icon Farsipdf icon Russianpdf icon Swahilipdf icon Ukrainianpdf icon Vietnamesepdf icon Koreanpdf icon Amharicpdf icon Nepalipdf icon Haitian Creolepdf icon Pashtopdf icon Somalipdf icon Tigrynapdf icon11 x 17Digital signage: 1921 x 10811081 x 1921 Englishimage icon",
            "sentences": [
                {
                    "sentence_id": "1e70c19ffe4b7f50bfba1d3f9b836243fe6bc996-C002-S000",
                    "start": 0,
                    "end": 596
                }
            ]
        },
        {
            "section": "Share Facts About COVID-19",
            "context_id": "1e70c19ffe4b7f50bfba1d3f9b836243fe6bc996-C003",
            "text": "Know the facts about coronavirus disease 2019 (COVID-19) and help stop the spread of rumors.8.5?11Spanishpdf icon",
            "sentences": [
                {
                    "sentence_id": "1e70c19ffe4b7f50bfba1d3f9b836243fe6bc996-C003-S000",
                    "start": 0,
                    "end": 113
                }
            ]
        },
        {
            "section": "Stay home when you are sick!",
            "context_id": "1e70c19ffe4b7f50bfba1d3f9b836243fe6bc996-C004",
            "text": "If you feel unwell or have the following symptoms, fever, cough, or shortness of breath, stay home and do not go to work.11 x 8.5 Horizontal Englishpdf icon8.5 x 11 Vertical Englishpdf icon24 x 36 Vertical Englishpdf icon",
            "sentences": [
                {
                    "sentence_id": "1e70c19ffe4b7f50bfba1d3f9b836243fe6bc996-C004-S000",
                    "start": 0,
                    "end": 125
                },
                {
                    "sentence_id": "1e70c19ffe4b7f50bfba1d3f9b836243fe6bc996-C004-S001",
                    "start": 126,
                    "end": 159
                },
                {
                    "sentence_id": "1e70c19ffe4b7f50bfba1d3f9b836243fe6bc996-C004-S002",
                    "start": 160,
                    "end": 191
                },
                {
                    "sentence_id": "1e70c19ffe4b7f50bfba1d3f9b836243fe6bc996-C004-S003",
                    "start": 192,
                    "end": 221
                }
            ]
        },
        {
            "section": "Symptoms of Coronavirus Disease 2019 poster",
            "context_id": "1e70c19ffe4b7f50bfba1d3f9b836243fe6bc996-C005",
            "text": "Patients with COVID-19 have experienced mild to severe respiratory illness. Symptoms can include fever, cough and shortness of breath. Symptoms may appear 2-14 days after exposure.8.5?11Spanishpdf icon Simplified Chinesepdf icon Koreanpdf icon",
            "sentences": [
                {
                    "sentence_id": "1e70c19ffe4b7f50bfba1d3f9b836243fe6bc996-C005-S000",
                    "start": 0,
                    "end": 75
                },
                {
                    "sentence_id": "1e70c19ffe4b7f50bfba1d3f9b836243fe6bc996-C005-S001",
                    "start": 76,
                    "end": 134
                },
                {
                    "sentence_id": "1e70c19ffe4b7f50bfba1d3f9b836243fe6bc996-C005-S002",
                    "start": 135,
                    "end": 243
                }
            ]
        },
        {
            "section": "Keeping Patients on Dialysis Safe",
            "context_id": "1e70c19ffe4b7f50bfba1d3f9b836243fe6bc996-C006",
            "text": "If you are on dialysis, you should NOT postpone your treatments. Learn ways to protect yourself from COVID-19 while on dialysis.Spanishpdf icon Simplified Chinesepdf icon Vietnamesepdf icon",
            "sentences": [
                {
                    "sentence_id": "1e70c19ffe4b7f50bfba1d3f9b836243fe6bc996-C006-S000",
                    "start": 0,
                    "end": 64
                },
                {
                    "sentence_id": "1e70c19ffe4b7f50bfba1d3f9b836243fe6bc996-C006-S001",
                    "start": 65,
                    "end": 128
                },
                {
                    "sentence_id": "1e70c19ffe4b7f50bfba1d3f9b836243fe6bc996-C006-S002",
                    "start": 128,
                    "end": 189
                }
            ]
        },
        {
            "section": "What You Can Do if You are at Higher Risk of Severe Illness from COVID-19",
            "context_id": "1e70c19ffe4b7f50bfba1d3f9b836243fe6bc996-C007",
            "text": "People at high-risk for severe illness from COVID-19 include older adults, people who live in a nursing home or long-term care facility, and people of all ages with underlying medical conditions. Learn what you can do to protect yourself.",
            "sentences": [
                {
                    "sentence_id": "1e70c19ffe4b7f50bfba1d3f9b836243fe6bc996-C007-S000",
                    "start": 0,
                    "end": 195
                },
                {
                    "sentence_id": "1e70c19ffe4b7f50bfba1d3f9b836243fe6bc996-C007-S001",
                    "start": 196,
                    "end": 238
                }
            ]
        },
        {
            "section": "CDC Protect and Prepares Communities",
            "context_id": "1e70c19ffe4b7f50bfba1d3f9b836243fe6bc996-C008",
            "text": "Learn how CDC is aggressively responding to the global outbreak of COVID-19 and preparing for the potential of community spread in the U.S.8.5?11Spanishpdf icon Chinesepdf icon Koreanpdf icon",
            "sentences": [
                {
                    "sentence_id": "1e70c19ffe4b7f50bfba1d3f9b836243fe6bc996-C008-S000",
                    "start": 0,
                    "end": 191
                }
            ]
        },
        {
            "section": "Stay Healthy Wash Your Hands",
            "context_id": "1e70c19ffe4b7f50bfba1d3f9b836243fe6bc996-C009",
            "text": "Germs are all around you. Stay healthy by washing your hands often with soap and water for at least 20 seconds. If soap and water are not readily available, use an alcohol-based hand sanitizer with at least 60% alcohol. Always wash hands with soap and water if hands are visibly dirty.8.5?1111?17",
            "sentences": [
                {
                    "sentence_id": "1e70c19ffe4b7f50bfba1d3f9b836243fe6bc996-C009-S000",
                    "start": 0,
                    "end": 25
                },
                {
                    "sentence_id": "1e70c19ffe4b7f50bfba1d3f9b836243fe6bc996-C009-S001",
                    "start": 26,
                    "end": 111
                },
                {
                    "sentence_id": "1e70c19ffe4b7f50bfba1d3f9b836243fe6bc996-C009-S002",
                    "start": 112,
                    "end": 219
                },
                {
                    "sentence_id": "1e70c19ffe4b7f50bfba1d3f9b836243fe6bc996-C009-S003",
                    "start": 220,
                    "end": 296
                }
            ]
        },
        {
            "section": "Wash Your Hands",
            "context_id": "1e70c19ffe4b7f50bfba1d3f9b836243fe6bc996-C010",
            "text": "Follow these steps for proper handwashing to prevent the spread of germs. Wash your hands with soap and water for at least 20 seconds.11?17Spanishpdf icon Frenchpdf icon Arabicpdf icon Bengalipdf icon Chinesepdf icon Portuguesepdf icon Urdupdf icon",
            "sentences": [
                {
                    "sentence_id": "1e70c19ffe4b7f50bfba1d3f9b836243fe6bc996-C010-S000",
                    "start": 0,
                    "end": 73
                },
                {
                    "sentence_id": "1e70c19ffe4b7f50bfba1d3f9b836243fe6bc996-C010-S001",
                    "start": 74,
                    "end": 248
                }
            ]
        },
        {
            "section": "Keep Calm and Wash Your Hands",
            "context_id": "1e70c19ffe4b7f50bfba1d3f9b836243fe6bc996-C011",
            "text": "Wash your hands often with soap and water for at least 20 seconds, especially after going to the bathroom; before eating; and after blowing your nose, coughing, or sneezing.8.5?11Spanishpdf icon Frenchpdf icon Arabicpdf icon Bengalipdf icon11?17Spanishpdf icon Frenchpdf icon Arabicpdf icon Bengalipdf icon",
            "sentences": [
                {
                    "sentence_id": "1e70c19ffe4b7f50bfba1d3f9b836243fe6bc996-C011-S000",
                    "start": 0,
                    "end": 224
                },
                {
                    "sentence_id": "1e70c19ffe4b7f50bfba1d3f9b836243fe6bc996-C011-S001",
                    "start": 225,
                    "end": 306
                }
            ]
        },
        {
            "section": "CERC in an Infectious Disease Outbreak",
            "context_id": "1e70c19ffe4b7f50bfba1d3f9b836243fe6bc996-C012",
            "text": "Crises and Emergency Risk Communication fact sheet. Be first, be right, be credible, express empathy, promote action, show respect.8.5?11",
            "sentences": [
                {
                    "sentence_id": "1e70c19ffe4b7f50bfba1d3f9b836243fe6bc996-C012-S000",
                    "start": 0,
                    "end": 51
                },
                {
                    "sentence_id": "1e70c19ffe4b7f50bfba1d3f9b836243fe6bc996-C012-S001",
                    "start": 52,
                    "end": 137
                }
            ]
        },
        {
            "section": "Featured Resources",
            "context_id": "1e70c19ffe4b7f50bfba1d3f9b836243fe6bc996-C013",
            "text": "30 Days to Slow the Spread30 Days to Slow the Spread: The President?s Coronavirus Guidelines for America.See the latest guidelines from the President and CDC.Spanishpdf iconexternal icon Simplified Chinesepdf icon Vietnamesepdf iconWhat to do if you are sickIf you are sick with coronavirus disease 2019, or suspected of being infected with it, follow the steps in this fact sheet to help prevent spreading it to people in your home and community.8.5?11Spanishpdf icon Frenchpdf icon Simplified Chinesepdf icon Arabicpdf icon Daripdf icon Farsipdf icon Russianpdf icon Swahilipdf icon Ukrainianpdf icon Vietnamesepdf icon Amharicpdf icon Nepalipdf icon Haitian Creolepdf icon Pashtopdf icon Somalipdf icon Tigrynapdf icon",
            "sentences": [
                {
                    "sentence_id": "1e70c19ffe4b7f50bfba1d3f9b836243fe6bc996-C013-S000",
                    "start": 0,
                    "end": 105
                },
                {
                    "sentence_id": "1e70c19ffe4b7f50bfba1d3f9b836243fe6bc996-C013-S001",
                    "start": 105,
                    "end": 227
                },
                {
                    "sentence_id": "1e70c19ffe4b7f50bfba1d3f9b836243fe6bc996-C013-S002",
                    "start": 228,
                    "end": 260
                },
                {
                    "sentence_id": "1e70c19ffe4b7f50bfba1d3f9b836243fe6bc996-C013-S003",
                    "start": 261,
                    "end": 483
                },
                {
                    "sentence_id": "1e70c19ffe4b7f50bfba1d3f9b836243fe6bc996-C013-S004",
                    "start": 484,
                    "end": 494
                },
                {
                    "sentence_id": "1e70c19ffe4b7f50bfba1d3f9b836243fe6bc996-C013-S005",
                    "start": 495,
                    "end": 533
                },
                {
                    "sentence_id": "1e70c19ffe4b7f50bfba1d3f9b836243fe6bc996-C013-S006",
                    "start": 534,
                    "end": 552
                },
                {
                    "sentence_id": "1e70c19ffe4b7f50bfba1d3f9b836243fe6bc996-C013-S007",
                    "start": 553,
                    "end": 568
                },
                {
                    "sentence_id": "1e70c19ffe4b7f50bfba1d3f9b836243fe6bc996-C013-S008",
                    "start": 569,
                    "end": 621
                },
                {
                    "sentence_id": "1e70c19ffe4b7f50bfba1d3f9b836243fe6bc996-C013-S009",
                    "start": 622,
                    "end": 721
                }
            ]
        },
        {
            "section": "",
            "context_id": "1e70c19ffe4b7f50bfba1d3f9b836243fe6bc996-C014",
            "text": "Outdoors sign ? Stop patients with respiratory symptoms.",
            "sentences": [
                {
                    "sentence_id": "1e70c19ffe4b7f50bfba1d3f9b836243fe6bc996-C014-S000",
                    "start": 0,
                    "end": 15
                },
                {
                    "sentence_id": "1e70c19ffe4b7f50bfba1d3f9b836243fe6bc996-C014-S001",
                    "start": 16,
                    "end": 56
                }
            ]
        },
        {
            "section": "",
            "context_id": "1e70c19ffe4b7f50bfba1d3f9b836243fe6bc996-C015",
            "text": "Indoors sign ? Refer patients with respiratory symptoms to the front desk.",
            "sentences": [
                {
                    "sentence_id": "1e70c19ffe4b7f50bfba1d3f9b836243fe6bc996-C015-S000",
                    "start": 0,
                    "end": 14
                },
                {
                    "sentence_id": "1e70c19ffe4b7f50bfba1d3f9b836243fe6bc996-C015-S001",
                    "start": 15,
                    "end": 74
                }
            ]
        },
        {
            "section": "",
            "context_id": "1e70c19ffe4b7f50bfba1d3f9b836243fe6bc996-C016",
            "text": "Patient handout with tips for home care.| Spanishpdf icon | Chinesepdf icon | Vietnamesepdf icon |",
            "sentences": [
                {
                    "sentence_id": "1e70c19ffe4b7f50bfba1d3f9b836243fe6bc996-C016-S000",
                    "start": 0,
                    "end": 41
                },
                {
                    "sentence_id": "1e70c19ffe4b7f50bfba1d3f9b836243fe6bc996-C016-S001",
                    "start": 42,
                    "end": 57
                },
                {
                    "sentence_id": "1e70c19ffe4b7f50bfba1d3f9b836243fe6bc996-C016-S002",
                    "start": 58,
                    "end": 59
                },
                {
                    "sentence_id": "1e70c19ffe4b7f50bfba1d3f9b836243fe6bc996-C016-S003",
                    "start": 60,
                    "end": 77
                },
                {
                    "sentence_id": "1e70c19ffe4b7f50bfba1d3f9b836243fe6bc996-C016-S004",
                    "start": 78,
                    "end": 98
                }
            ]
        },
        {
            "section": "",
            "context_id": "1e70c19ffe4b7f50bfba1d3f9b836243fe6bc996-C017",
            "text": "Poster ? How to Put On &amp; Take Off PPE",
            "sentences": [
                {
                    "sentence_id": "1e70c19ffe4b7f50bfba1d3f9b836243fe6bc996-C017-S000",
                    "start": 0,
                    "end": 8
                },
                {
                    "sentence_id": "1e70c19ffe4b7f50bfba1d3f9b836243fe6bc996-C017-S001",
                    "start": 9,
                    "end": 41
                }
            ]
        },
        {
            "section": "",
            "context_id": "1e70c19ffe4b7f50bfba1d3f9b836243fe6bc996-C018",
            "text": "Factsheet ? How to Put On &amp; Take Off PPE",
            "sentences": [
                {
                    "sentence_id": "1e70c19ffe4b7f50bfba1d3f9b836243fe6bc996-C018-S000",
                    "start": 0,
                    "end": 11
                },
                {
                    "sentence_id": "1e70c19ffe4b7f50bfba1d3f9b836243fe6bc996-C018-S001",
                    "start": 12,
                    "end": 44
                }
            ]
        },
        {
            "section": "",
            "context_id": "1e70c19ffe4b7f50bfba1d3f9b836243fe6bc996-C019",
            "text": "Factsheet ? Get Your Clinic Ready for COVID-19",
            "sentences": [
                {
                    "sentence_id": "1e70c19ffe4b7f50bfba1d3f9b836243fe6bc996-C019-S000",
                    "start": 0,
                    "end": 11
                },
                {
                    "sentence_id": "1e70c19ffe4b7f50bfba1d3f9b836243fe6bc996-C019-S001",
                    "start": 12,
                    "end": 46
                }
            ]
        },
        {
            "section": "",
            "context_id": "1e70c19ffe4b7f50bfba1d3f9b836243fe6bc996-C020",
            "text": "Factsheet ? What healthcare personnel should know about caring for patients with confirmed or possible COVID-19.",
            "sentences": [
                {
                    "sentence_id": "1e70c19ffe4b7f50bfba1d3f9b836243fe6bc996-C020-S000",
                    "start": 0,
                    "end": 11
                },
                {
                    "sentence_id": "1e70c19ffe4b7f50bfba1d3f9b836243fe6bc996-C020-S001",
                    "start": 12,
                    "end": 112
                }
            ]
        },
        {
            "section": "",
            "context_id": "1e70c19ffe4b7f50bfba1d3f9b836243fe6bc996-C021",
            "text": "Patient handout for dialysis facilities. Information on how the facility keeps patients safe.",
            "sentences": [
                {
                    "sentence_id": "1e70c19ffe4b7f50bfba1d3f9b836243fe6bc996-C021-S000",
                    "start": 0,
                    "end": 40
                },
                {
                    "sentence_id": "1e70c19ffe4b7f50bfba1d3f9b836243fe6bc996-C021-S001",
                    "start": 41,
                    "end": 93
                }
            ]
        },
        {
            "section": "",
            "context_id": "1e70c19ffe4b7f50bfba1d3f9b836243fe6bc996-C022",
            "text": "Illustration ? PPE for Healthcare Personnel",
            "sentences": [
                {
                    "sentence_id": "1e70c19ffe4b7f50bfba1d3f9b836243fe6bc996-C022-S000",
                    "start": 0,
                    "end": 14
                },
                {
                    "sentence_id": "1e70c19ffe4b7f50bfba1d3f9b836243fe6bc996-C022-S001",
                    "start": 15,
                    "end": 43
                }
            ]
        },
        {
            "section": "",
            "context_id": "1e70c19ffe4b7f50bfba1d3f9b836243fe6bc996-C023",
            "text": "If you are sick with a fever, cough, or shortness of breath, you might have COVID-19. Take care of yourself and help prevent other people from getting sick.",
            "sentences": [
                {
                    "sentence_id": "1e70c19ffe4b7f50bfba1d3f9b836243fe6bc996-C023-S000",
                    "start": 0,
                    "end": 85
                },
                {
                    "sentence_id": "1e70c19ffe4b7f50bfba1d3f9b836243fe6bc996-C023-S001",
                    "start": 86,
                    "end": 156
                }
            ]
        },
        {
            "section": "",
            "context_id": "1e70c19ffe4b7f50bfba1d3f9b836243fe6bc996-C024",
            "text": "Symptoms of COVID-19 may appear 2-14 days after exposure.",
            "sentences": [
                {
                    "sentence_id": "1e70c19ffe4b7f50bfba1d3f9b836243fe6bc996-C024-S000",
                    "start": 0,
                    "end": 57
                }
            ]
        },
        {
            "section": "",
            "context_id": "1e70c19ffe4b7f50bfba1d3f9b836243fe6bc996-C025",
            "text": "If a family member or friend has a fever, cough, or shortness of breath, they might have COVID-19. If you care for them, protect yourself from becoming infected.",
            "sentences": [
                {
                    "sentence_id": "1e70c19ffe4b7f50bfba1d3f9b836243fe6bc996-C025-S000",
                    "start": 0,
                    "end": 98
                },
                {
                    "sentence_id": "1e70c19ffe4b7f50bfba1d3f9b836243fe6bc996-C025-S001",
                    "start": 99,
                    "end": 161
                }
            ]
        },
        {
            "section": "",
            "context_id": "1e70c19ffe4b7f50bfba1d3f9b836243fe6bc996-C026",
            "text": "Social distancing means that you should avoid close contact with healthy people. If you are sick, you can help stop the spread of disease by social distancing. If you are healthy, you can help prevent yourself from getting sick. Social distancing is recommended if Coronavirus Disease 2019 (COVID-19) is spreading in your community.",
            "sentences": [
                {
                    "sentence_id": "1e70c19ffe4b7f50bfba1d3f9b836243fe6bc996-C026-S000",
                    "start": 0,
                    "end": 80
                },
                {
                    "sentence_id": "1e70c19ffe4b7f50bfba1d3f9b836243fe6bc996-C026-S001",
                    "start": 81,
                    "end": 159
                },
                {
                    "sentence_id": "1e70c19ffe4b7f50bfba1d3f9b836243fe6bc996-C026-S002",
                    "start": 160,
                    "end": 228
                },
                {
                    "sentence_id": "1e70c19ffe4b7f50bfba1d3f9b836243fe6bc996-C026-S003",
                    "start": 229,
                    "end": 332
                }
            ]
        },
        {
            "section": "",
            "context_id": "1e70c19ffe4b7f50bfba1d3f9b836243fe6bc996-C027",
            "text": "Protect yourself and others from COVID-19 by learning how it spreads and taking everyday preventive actions.",
            "sentences": [
                {
                    "sentence_id": "1e70c19ffe4b7f50bfba1d3f9b836243fe6bc996-C027-S000",
                    "start": 0,
                    "end": 108
                }
            ]
        },
        {
            "section": "",
            "context_id": "1e70c19ffe4b7f50bfba1d3f9b836243fe6bc996-C028",
            "text": "Ad Council Print Materials",
            "sentences": [
                {
                    "sentence_id": "1e70c19ffe4b7f50bfba1d3f9b836243fe6bc996-C028-S000",
                    "start": 0,
                    "end": 26
                }
            ]
        }
    ]
}