{
    "document_id": "1f88a7b9b112ca618a1f86e940253c300fdb928e",
    "metadata": {
        "title": "Seattle-King, Pierce and Snohomish , Washington Community Mitigation",
        "url": "https://www.cdc.gov/coronavirus/2019-ncov/cases-updates/washington-seattle.html"
    },
    "contexts": [
        {
            "section": "",
            "context_id": "1f88a7b9b112ca618a1f86e940253c300fdb928e-C000",
            "text": "CDC?s Recommendations for the next 30 days of Mitigation Strategies for Seattle-King, Pierce and Snohomish based on current situation with widespread COVID-19 transmission and affected health care facilities",
            "sentences": [
                {
                    "sentence_id": "1f88a7b9b112ca618a1f86e940253c300fdb928e-C000-S000",
                    "start": 0,
                    "end": 207
                }
            ]
        },
        {
            "section": "",
            "context_id": "1f88a7b9b112ca618a1f86e940253c300fdb928e-C001",
            "text": "Seattle-King and Pierce County has recently implemented many interventions consistent with CDC?s recently posted guidance (https://www.cdc.gov/coronavirus/2019-ncov/community/index.html).Seattle-King County?s own interventions are detailed at:The following describes CDC recommendations for evidence-base community interventions for the situation in King and Pierce Counties and will be the roadmap for other counties as needed.",
            "sentences": [
                {
                    "sentence_id": "1f88a7b9b112ca618a1f86e940253c300fdb928e-C001-S000",
                    "start": 0,
                    "end": 199
                },
                {
                    "sentence_id": "1f88a7b9b112ca618a1f86e940253c300fdb928e-C001-S001",
                    "start": 200,
                    "end": 226
                },
                {
                    "sentence_id": "1f88a7b9b112ca618a1f86e940253c300fdb928e-C001-S002",
                    "start": 227,
                    "end": 428
                }
            ]
        },
        {
            "section": "",
            "context_id": "1f88a7b9b112ca618a1f86e940253c300fdb928e-C002",
            "text": "Bottom Line Up Front:Due to widespread transmission in Seattle, Washington, CDC recommends extensive community mitigation activities to support slowing the spread of respiratory virus infections. These approaches are used to minimize morbidity and mortality caused by COVID-19 and minimize social and economic impacts of COVID-19. Individuals, communities, businesses, and healthcare organizations are all part of a community mitigation strategy. Given the widespread community transmission in Seattle, WA, and the extensive involvement of health care facilities, especially nursing facilities at the epicenter, substantial interventions for both community (Table) and health care settings (appendix A) should be implemented at this time, based on the urgency of protecting the health care system with expected rise in cases by slowing the spread within the community.GoalsThe goals for using mitigation strategies for Seattle-King and Pierce Counties at this time are to protect:",
            "sentences": [
                {
                    "sentence_id": "1f88a7b9b112ca618a1f86e940253c300fdb928e-C002-S000",
                    "start": 0,
                    "end": 11
                },
                {
                    "sentence_id": "1f88a7b9b112ca618a1f86e940253c300fdb928e-C002-S001",
                    "start": 12,
                    "end": 195
                },
                {
                    "sentence_id": "1f88a7b9b112ca618a1f86e940253c300fdb928e-C002-S002",
                    "start": 196,
                    "end": 330
                },
                {
                    "sentence_id": "1f88a7b9b112ca618a1f86e940253c300fdb928e-C002-S003",
                    "start": 331,
                    "end": 446
                },
                {
                    "sentence_id": "1f88a7b9b112ca618a1f86e940253c300fdb928e-C002-S004",
                    "start": 447,
                    "end": 868
                },
                {
                    "sentence_id": "1f88a7b9b112ca618a1f86e940253c300fdb928e-C002-S005",
                    "start": 868,
                    "end": 980
                }
            ]
        },
        {
            "section": "",
            "context_id": "1f88a7b9b112ca618a1f86e940253c300fdb928e-C003",
            "text": "Table.",
            "sentences": [
                {
                    "sentence_id": "1f88a7b9b112ca618a1f86e940253c300fdb928e-C003-S000",
                    "start": 0,
                    "end": 6
                }
            ]
        },
        {
            "section": "",
            "context_id": "1f88a7b9b112ca618a1f86e940253c300fdb928e-C004",
            "text": "Appendix A: CDC Recommendations for Seattle-King and Pierce County, WA Strategy for Long-term Care FacilitiesBackground:Given their congregate nature and resident population served (e.g., older adults with multiple co-morbidities), all long-term care facilities are at the highest risk of being affected by COVID-19. If infected, residents are at highest risk for morbidity and mortality and, based on early experience, have the potential to decompensate quickly.Ill healthcare personnel (HCP) or visitors are the most likely sources of introduction of COVID-19 into the facility. To protect this fragile population, aggressive efforts toward visitor restrictions and screening of HCP for fever and respiratory symptoms when they report to work are recommended, even before COVID-19 is identified in a community or facility.Objectives:",
            "sentences": [
                {
                    "sentence_id": "1f88a7b9b112ca618a1f86e940253c300fdb928e-C004-S000",
                    "start": 0,
                    "end": 11
                },
                {
                    "sentence_id": "1f88a7b9b112ca618a1f86e940253c300fdb928e-C004-S001",
                    "start": 12,
                    "end": 120
                },
                {
                    "sentence_id": "1f88a7b9b112ca618a1f86e940253c300fdb928e-C004-S002",
                    "start": 120,
                    "end": 316
                },
                {
                    "sentence_id": "1f88a7b9b112ca618a1f86e940253c300fdb928e-C004-S003",
                    "start": 317,
                    "end": 463
                },
                {
                    "sentence_id": "1f88a7b9b112ca618a1f86e940253c300fdb928e-C004-S004",
                    "start": 463,
                    "end": 496
                },
                {
                    "sentence_id": "1f88a7b9b112ca618a1f86e940253c300fdb928e-C004-S005",
                    "start": 497,
                    "end": 580
                },
                {
                    "sentence_id": "1f88a7b9b112ca618a1f86e940253c300fdb928e-C004-S006",
                    "start": 581,
                    "end": 824
                },
                {
                    "sentence_id": "1f88a7b9b112ca618a1f86e940253c300fdb928e-C004-S007",
                    "start": 824,
                    "end": 835
                }
            ]
        },
        {
            "section": "",
            "context_id": "1f88a7b9b112ca618a1f86e940253c300fdb928e-C005",
            "text": "Appendix B: Underlying medical conditions that may increase the risk of serious COVID-19 for individuals of any age.",
            "sentences": [
                {
                    "sentence_id": "1f88a7b9b112ca618a1f86e940253c300fdb928e-C005-S000",
                    "start": 0,
                    "end": 11
                },
                {
                    "sentence_id": "1f88a7b9b112ca618a1f86e940253c300fdb928e-C005-S001",
                    "start": 12,
                    "end": 116
                }
            ]
        }
    ]
}