{
    "document_id": "30b8dc90fb37c4ec464dbfd05c3a59fb27458d68",
    "metadata": {
        "title": null,
        "url": "https://www.who.int/emergencies/diseases/novel-coronavirus-2019/global-research-on-novel-coronavirus-2019-ncov/solidarity-clinical-trial-for-covid-19-treatments"
    },
    "contexts": [
        {
            "section": "Key Links",
            "context_id": "30b8dc90fb37c4ec464dbfd05c3a59fb27458d68-C000",
            "text": "18 March 2020 WHO Director-General's opening remarks at the media briefing on COVID-19 - 18 March 2020",
            "sentences": [
                {
                    "sentence_id": "30b8dc90fb37c4ec464dbfd05c3a59fb27458d68-C000-S000",
                    "start": 0,
                    "end": 13
                },
                {
                    "sentence_id": "30b8dc90fb37c4ec464dbfd05c3a59fb27458d68-C000-S001",
                    "start": 14,
                    "end": 102
                }
            ]
        }
    ]
}