{
    "document_id": "86205a6249a7023b7f693cbbc08b081a62df111d",
    "metadata": {
        "title": "Caring for Children",
        "url": "https://www.cdc.gov/coronavirus/2019-ncov/daily-life-coping/children.html"
    },
    "contexts": [
        {
            "section": null,
            "context_id": "86205a6249a7023b7f693cbbc08b081a62df111d-C000",
            "text": "Tips to keep children healthy while school?s out",
            "sentences": [
                {
                    "sentence_id": "86205a6249a7023b7f693cbbc08b081a62df111d-C000-S000",
                    "start": 0,
                    "end": 48
                }
            ]
        },
        {
            "section": "Help stop the spread of COVID-19 - Take steps to protect children and others from getting sick",
            "context_id": "86205a6249a7023b7f693cbbc08b081a62df111d-C001",
            "text": "Help stop the spread of COVID-19 by doing the same things everyone should do to stay healthy. Teach your children to do the same.",
            "sentences": [
                {
                    "sentence_id": "86205a6249a7023b7f693cbbc08b081a62df111d-C001-S000",
                    "start": 0,
                    "end": 93
                },
                {
                    "sentence_id": "86205a6249a7023b7f693cbbc08b081a62df111d-C001-S001",
                    "start": 94,
                    "end": 129
                }
            ]
        },
        {
            "section": "Children may have mild symptoms",
            "context_id": "86205a6249a7023b7f693cbbc08b081a62df111d-C002",
            "text": "The symptoms of COVID-19 are similar in children and adults. However, children with confirmed COVID-19 have generally shown mild symptoms. Reported symptoms in children include cold-like symptoms, such as fever, runny nose, and cough. Vomiting and diarrhea have also been reported.It?s not known yet whether some children may be at higher risk for severe illness, for example, children with underlying medical conditions and special healthcare needs. There is more to learn about how the disease impacts children. You can learn more about who is most at risk for health problems if they have COVID-19 infection on Are You at Higher Risk for Severe Illness.",
            "sentences": [
                {
                    "sentence_id": "86205a6249a7023b7f693cbbc08b081a62df111d-C002-S000",
                    "start": 0,
                    "end": 60
                },
                {
                    "sentence_id": "86205a6249a7023b7f693cbbc08b081a62df111d-C002-S001",
                    "start": 61,
                    "end": 138
                },
                {
                    "sentence_id": "86205a6249a7023b7f693cbbc08b081a62df111d-C002-S002",
                    "start": 139,
                    "end": 234
                },
                {
                    "sentence_id": "86205a6249a7023b7f693cbbc08b081a62df111d-C002-S003",
                    "start": 235,
                    "end": 281
                },
                {
                    "sentence_id": "86205a6249a7023b7f693cbbc08b081a62df111d-C002-S004",
                    "start": 281,
                    "end": 450
                },
                {
                    "sentence_id": "86205a6249a7023b7f693cbbc08b081a62df111d-C002-S005",
                    "start": 451,
                    "end": 513
                },
                {
                    "sentence_id": "86205a6249a7023b7f693cbbc08b081a62df111d-C002-S006",
                    "start": 514,
                    "end": 591
                },
                {
                    "sentence_id": "86205a6249a7023b7f693cbbc08b081a62df111d-C002-S007",
                    "start": 592,
                    "end": 656
                }
            ]
        },
        {
            "section": "Limit time with older adults and people with serious underlying medical conditions",
            "context_id": "86205a6249a7023b7f693cbbc08b081a62df111d-C003",
            "text": "are at highest risk of severe illness from COVID-19.",
            "sentences": [
                {
                    "sentence_id": "86205a6249a7023b7f693cbbc08b081a62df111d-C003-S000",
                    "start": 0,
                    "end": 52
                }
            ]
        },
        {
            "section": "Children 2 years and older should wear a cloth face covering",
            "context_id": "86205a6249a7023b7f693cbbc08b081a62df111d-C004",
            "text": "Children 2 years and older should wear a cloth face covering their nose and mouth when in the community setting. This is an additional public health measure people should take to reduce the spread of COVID-19 in addition to (not instead of) social distancing, frequent hand cleaning and other everyday preventive actions. A cloth face covering is not intended to protect the wearer, but may prevent the spread of virus from the wearer to others. This would be especially important in the event that someone is infected but does not have symptoms. Medical masks and N-95 respirators are still reserved for healthcare workers and other first responders, as recommended by current CDC guidance.",
            "sentences": [
                {
                    "sentence_id": "86205a6249a7023b7f693cbbc08b081a62df111d-C004-S000",
                    "start": 0,
                    "end": 112
                },
                {
                    "sentence_id": "86205a6249a7023b7f693cbbc08b081a62df111d-C004-S001",
                    "start": 113,
                    "end": 321
                },
                {
                    "sentence_id": "86205a6249a7023b7f693cbbc08b081a62df111d-C004-S002",
                    "start": 322,
                    "end": 445
                },
                {
                    "sentence_id": "86205a6249a7023b7f693cbbc08b081a62df111d-C004-S003",
                    "start": 446,
                    "end": 546
                },
                {
                    "sentence_id": "86205a6249a7023b7f693cbbc08b081a62df111d-C004-S004",
                    "start": 547,
                    "end": 691
                }
            ]
        },
        {
            "section": "Ask about school meal services",
            "context_id": "86205a6249a7023b7f693cbbc08b081a62df111d-C005",
            "text": "Check with your school on plans to continue meal services during the school dismissal. Many schools are keeping school facilities open to allow families to pick up meals or are providing grab-and-go meals at a central location.",
            "sentences": [
                {
                    "sentence_id": "86205a6249a7023b7f693cbbc08b081a62df111d-C005-S000",
                    "start": 0,
                    "end": 86
                },
                {
                    "sentence_id": "86205a6249a7023b7f693cbbc08b081a62df111d-C005-S001",
                    "start": 87,
                    "end": 227
                }
            ]
        },
        {
            "section": "",
            "context_id": "86205a6249a7023b7f693cbbc08b081a62df111d-C006",
            "text": "Related:",
            "sentences": [
                {
                    "sentence_id": "86205a6249a7023b7f693cbbc08b081a62df111d-C006-S000",
                    "start": 0,
                    "end": 8
                }
            ]
        }
    ]
}