{
    "document_id": "95f514cc105df05eede5c86cf2fb5d8f15ad73d8",
    "metadata": {
        "title": null,
        "url": "https://www.who.int/emergencies/diseases/novel-coronavirus-2019/events-as-they-happen"
    },
    "contexts": [
        {
            "section": "Rolling updates on coronavirus disease (COVID-19) - Events as they happen - Summary - WHO and UNHCR join forces to improve health services for refugees, displaced and stateless people - Key materials - WHO supports Smithsonian Science Education Center with launch of COVID-19 Guide for Youth - Key materials",
            "context_id": "95f514cc105df05eede5c86cf2fb5d8f15ad73d8-C000",
            "text": "Guide: COVID-19! How Can I Protect Myself and Others?",
            "sentences": [
                {
                    "sentence_id": "95f514cc105df05eede5c86cf2fb5d8f15ad73d8-C000-S000",
                    "start": 0,
                    "end": 16
                },
                {
                    "sentence_id": "95f514cc105df05eede5c86cf2fb5d8f15ad73d8-C000-S001",
                    "start": 17,
                    "end": 53
                }
            ]
        },
        {
            "section": "Rolling updates on coronavirus disease (COVID-19) - Events as they happen - Summary - WHO and UNHCR join forces to improve health services for refugees, displaced and stateless people - Key materials - WHO supports Smithsonian Science Education Center with launch of COVID-19 Guide for Youth - Key materials - UN launches 'Verified' initiative - Key materials - Day 2 of 73rd World Health Assembly - Day 1 of 73rd World Health Assembly - Independent Oversight and Advisory Committee releases interim report on COVID-19 response - WHO Results Report launched - 3rd Walk the Talk: Health for All Challenge goes virtual",
            "context_id": "95f514cc105df05eede5c86cf2fb5d8f15ad73d8-C001",
            "text": "Video recording from WHO/AFRO",
            "sentences": [
                {
                    "sentence_id": "95f514cc105df05eede5c86cf2fb5d8f15ad73d8-C001-S000",
                    "start": 0,
                    "end": 24
                },
                {
                    "sentence_id": "95f514cc105df05eede5c86cf2fb5d8f15ad73d8-C001-S001",
                    "start": 24,
                    "end": 29
                }
            ]
        },
        {
            "section": "Rolling updates on coronavirus disease (COVID-19) - Events as they happen - Summary - WHO and UNHCR join forces to improve health services for refugees, displaced and stateless people - Key materials - WHO supports Smithsonian Science Education Center with launch of COVID-19 Guide for Youth - Key materials - UN launches 'Verified' initiative - Key materials - Day 2 of 73rd World Health Assembly - Day 1 of 73rd World Health Assembly - Independent Oversight and Advisory Committee releases interim report on COVID-19 response - WHO Results Report launched - 3rd Walk the Talk: Health for All Challenge goes virtual",
            "context_id": "95f514cc105df05eede5c86cf2fb5d8f15ad73d8-C002",
            "text": "Video recording from WHO/EURO",
            "sentences": [
                {
                    "sentence_id": "95f514cc105df05eede5c86cf2fb5d8f15ad73d8-C002-S000",
                    "start": 0,
                    "end": 29
                }
            ]
        },
        {
            "section": "Rolling updates on coronavirus disease (COVID-19) - Events as they happen - Summary - WHO and UNHCR join forces to improve health services for refugees, displaced and stateless people - Key materials - WHO supports Smithsonian Science Education Center with launch of COVID-19 Guide for Youth - Key materials - UN launches 'Verified' initiative - Key materials - Day 2 of 73rd World Health Assembly - Day 1 of 73rd World Health Assembly - Independent Oversight and Advisory Committee releases interim report on COVID-19 response - WHO Results Report launched - 3rd Walk the Talk: Health for All Challenge goes virtual",
            "context_id": "95f514cc105df05eede5c86cf2fb5d8f15ad73d8-C003",
            "text": "Video recording from WHO/WPRO",
            "sentences": [
                {
                    "sentence_id": "95f514cc105df05eede5c86cf2fb5d8f15ad73d8-C003-S000",
                    "start": 0,
                    "end": 24
                },
                {
                    "sentence_id": "95f514cc105df05eede5c86cf2fb5d8f15ad73d8-C003-S001",
                    "start": 24,
                    "end": 29
                }
            ]
        },
        {
            "section": "Rolling updates on coronavirus disease (COVID-19) - Events as they happen - Summary - WHO and UNHCR join forces to improve health services for refugees, displaced and stateless people - Key materials - WHO supports Smithsonian Science Education Center with launch of COVID-19 Guide for Youth - Key materials - UN launches 'Verified' initiative - Key materials - Day 2 of 73rd World Health Assembly - Day 1 of 73rd World Health Assembly - Independent Oversight and Advisory Committee releases interim report on COVID-19 response - WHO Results Report launched - 3rd Walk the Talk: Health for All Challenge goes virtual",
            "context_id": "95f514cc105df05eede5c86cf2fb5d8f15ad73d8-C004",
            "text": "Video recording from WHO/SEARO",
            "sentences": [
                {
                    "sentence_id": "95f514cc105df05eede5c86cf2fb5d8f15ad73d8-C004-S000",
                    "start": 0,
                    "end": 24
                },
                {
                    "sentence_id": "95f514cc105df05eede5c86cf2fb5d8f15ad73d8-C004-S001",
                    "start": 24,
                    "end": 30
                }
            ]
        },
        {
            "section": "Rolling updates on coronavirus disease (COVID-19) - Events as they happen - Summary - WHO and UNHCR join forces to improve health services for refugees, displaced and stateless people - Key materials - WHO supports Smithsonian Science Education Center with launch of COVID-19 Guide for Youth - Key materials - UN launches 'Verified' initiative - Key materials - Day 2 of 73rd World Health Assembly - Day 1 of 73rd World Health Assembly - Independent Oversight and Advisory Committee releases interim report on COVID-19 response - WHO Results Report launched - 3rd Walk the Talk: Health for All Challenge goes virtual",
            "context_id": "95f514cc105df05eede5c86cf2fb5d8f15ad73d8-C005",
            "text": "Twitter thread on how to stay healthy at home",
            "sentences": [
                {
                    "sentence_id": "95f514cc105df05eede5c86cf2fb5d8f15ad73d8-C005-S000",
                    "start": 0,
                    "end": 45
                }
            ]
        },
        {
            "section": "Rolling updates on coronavirus disease (COVID-19) - Events as they happen - Summary - WHO and UNHCR join forces to improve health services for refugees, displaced and stateless people - Key materials - WHO supports Smithsonian Science Education Center with launch of COVID-19 Guide for Youth - Key materials - UN launches 'Verified' initiative - Key materials - Day 2 of 73rd World Health Assembly - Day 1 of 73rd World Health Assembly - Independent Oversight and Advisory Committee releases interim report on COVID-19 response - WHO Results Report launched - 3rd Walk the Talk: Health for All Challenge goes virtual - WHO teams up with the International Olympic Committee to improve health through sport - Explainer of WHO and the World Health Assembly - Special World Health Assembly talk with Professor Devi Sridhar - WHO and Costa Rica preview technology pooling initiative - WHO scientific brief on multisystem inflammatory syndrome in children and adolescents with COVID-19 - WHO Gender and COVID-19 Advocacy Brief - WHO Academy and WHO Info apps launch - UN Policy Brief on COVID-19 and the need for action on mental health - WHO statement on tobacco use and COVID-19 - #AskWHO on breastfeeding during COVID-19 - Key materials - COVID-19-related service disruptions could cause hundreds of thousands of extra deaths from HIV - Key materials - New guidance on surveillance strategies for COVID-19 human infection - New guidance on contact tracing - Considerations for public health and social measures in the workplace - Considerations for school-related public health measures - WHO Statement on false allegations in Der Spiegel",
            "context_id": "95f514cc105df05eede5c86cf2fb5d8f15ad73d8-C006",
            "text": "WHO Director-General's opening remarks at the media briefing on COVID-19 - 8 May 2020",
            "sentences": [
                {
                    "sentence_id": "95f514cc105df05eede5c86cf2fb5d8f15ad73d8-C006-S000",
                    "start": 0,
                    "end": 85
                }
            ]
        },
        {
            "section": "Rolling updates on coronavirus disease (COVID-19) - Events as they happen - Summary - WHO and UNHCR join forces to improve health services for refugees, displaced and stateless people - Key materials - WHO supports Smithsonian Science Education Center with launch of COVID-19 Guide for Youth - Key materials - UN launches 'Verified' initiative - Key materials - Day 2 of 73rd World Health Assembly - Day 1 of 73rd World Health Assembly - Independent Oversight and Advisory Committee releases interim report on COVID-19 response - WHO Results Report launched - 3rd Walk the Talk: Health for All Challenge goes virtual - WHO teams up with the International Olympic Committee to improve health through sport - Explainer of WHO and the World Health Assembly - Special World Health Assembly talk with Professor Devi Sridhar - WHO and Costa Rica preview technology pooling initiative - WHO scientific brief on multisystem inflammatory syndrome in children and adolescents with COVID-19 - WHO Gender and COVID-19 Advocacy Brief - WHO Academy and WHO Info apps launch - UN Policy Brief on COVID-19 and the need for action on mental health - WHO statement on tobacco use and COVID-19 - #AskWHO on breastfeeding during COVID-19 - Key materials - COVID-19-related service disruptions could cause hundreds of thousands of extra deaths from HIV - Key materials - New guidance on surveillance strategies for COVID-19 human infection - New guidance on contact tracing - Considerations for public health and social measures in the workplace - Considerations for school-related public health measures - WHO Statement on false allegations in Der Spiegel",
            "context_id": "95f514cc105df05eede5c86cf2fb5d8f15ad73d8-C007",
            "text": "Video recording of 8 May 2020 media briefing",
            "sentences": [
                {
                    "sentence_id": "95f514cc105df05eede5c86cf2fb5d8f15ad73d8-C007-S000",
                    "start": 0,
                    "end": 44
                }
            ]
        },
        {
            "section": "Rolling updates on coronavirus disease (COVID-19) - Events as they happen - Summary - WHO and UNHCR join forces to improve health services for refugees, displaced and stateless people - Key materials - WHO supports Smithsonian Science Education Center with launch of COVID-19 Guide for Youth - Key materials - UN launches 'Verified' initiative - Key materials - Day 2 of 73rd World Health Assembly - Day 1 of 73rd World Health Assembly - Independent Oversight and Advisory Committee releases interim report on COVID-19 response - WHO Results Report launched - 3rd Walk the Talk: Health for All Challenge goes virtual - WHO teams up with the International Olympic Committee to improve health through sport - Explainer of WHO and the World Health Assembly - Special World Health Assembly talk with Professor Devi Sridhar - WHO and Costa Rica preview technology pooling initiative - WHO scientific brief on multisystem inflammatory syndrome in children and adolescents with COVID-19 - WHO Gender and COVID-19 Advocacy Brief - WHO Academy and WHO Info apps launch - UN Policy Brief on COVID-19 and the need for action on mental health - WHO statement on tobacco use and COVID-19 - #AskWHO on breastfeeding during COVID-19 - Key materials - COVID-19-related service disruptions could cause hundreds of thousands of extra deaths from HIV - Key materials - New guidance on surveillance strategies for COVID-19 human infection - New guidance on contact tracing - Considerations for public health and social measures in the workplace - Considerations for school-related public health measures - WHO Statement on false allegations in Der Spiegel",
            "context_id": "95f514cc105df05eede5c86cf2fb5d8f15ad73d8-C008",
            "text": "LinkedIn article: Lessons from Smallpox Eradication Should Inspire Effort to Overcome COVID-19",
            "sentences": [
                {
                    "sentence_id": "95f514cc105df05eede5c86cf2fb5d8f15ad73d8-C008-S000",
                    "start": 0,
                    "end": 51
                },
                {
                    "sentence_id": "95f514cc105df05eede5c86cf2fb5d8f15ad73d8-C008-S001",
                    "start": 52,
                    "end": 94
                }
            ]
        },
        {
            "section": "Rolling updates on coronavirus disease (COVID-19) - Events as they happen - Summary - WHO and UNHCR join forces to improve health services for refugees, displaced and stateless people - Key materials - WHO supports Smithsonian Science Education Center with launch of COVID-19 Guide for Youth - Key materials - UN launches 'Verified' initiative - Key materials - Day 2 of 73rd World Health Assembly - Day 1 of 73rd World Health Assembly - Independent Oversight and Advisory Committee releases interim report on COVID-19 response - WHO Results Report launched - 3rd Walk the Talk: Health for All Challenge goes virtual - WHO teams up with the International Olympic Committee to improve health through sport - Explainer of WHO and the World Health Assembly - Special World Health Assembly talk with Professor Devi Sridhar - WHO and Costa Rica preview technology pooling initiative - WHO scientific brief on multisystem inflammatory syndrome in children and adolescents with COVID-19 - WHO Gender and COVID-19 Advocacy Brief - WHO Academy and WHO Info apps launch - UN Policy Brief on COVID-19 and the need for action on mental health - WHO statement on tobacco use and COVID-19 - #AskWHO on breastfeeding during COVID-19 - Key materials - COVID-19-related service disruptions could cause hundreds of thousands of extra deaths from HIV - Key materials - New guidance on surveillance strategies for COVID-19 human infection - New guidance on contact tracing - Considerations for public health and social measures in the workplace - Considerations for school-related public health measures - WHO Statement on false allegations in Der Spiegel",
            "context_id": "95f514cc105df05eede5c86cf2fb5d8f15ad73d8-C009",
            "text": "Video: 40th anniversary of smallpox eradication",
            "sentences": [
                {
                    "sentence_id": "95f514cc105df05eede5c86cf2fb5d8f15ad73d8-C009-S000",
                    "start": 0,
                    "end": 6
                },
                {
                    "sentence_id": "95f514cc105df05eede5c86cf2fb5d8f15ad73d8-C009-S001",
                    "start": 7,
                    "end": 47
                }
            ]
        },
        {
            "section": "Rolling updates on coronavirus disease (COVID-19) - Events as they happen - Summary - WHO and UNHCR join forces to improve health services for refugees, displaced and stateless people - Key materials - WHO supports Smithsonian Science Education Center with launch of COVID-19 Guide for Youth - Key materials - UN launches 'Verified' initiative - Key materials - Day 2 of 73rd World Health Assembly - Day 1 of 73rd World Health Assembly - Independent Oversight and Advisory Committee releases interim report on COVID-19 response - WHO Results Report launched - 3rd Walk the Talk: Health for All Challenge goes virtual - WHO teams up with the International Olympic Committee to improve health through sport - Explainer of WHO and the World Health Assembly - Special World Health Assembly talk with Professor Devi Sridhar - WHO and Costa Rica preview technology pooling initiative - WHO scientific brief on multisystem inflammatory syndrome in children and adolescents with COVID-19 - WHO Gender and COVID-19 Advocacy Brief - WHO Academy and WHO Info apps launch - UN Policy Brief on COVID-19 and the need for action on mental health - WHO statement on tobacco use and COVID-19 - #AskWHO on breastfeeding during COVID-19 - Key materials - COVID-19-related service disruptions could cause hundreds of thousands of extra deaths from HIV - Key materials - New guidance on surveillance strategies for COVID-19 human infection - New guidance on contact tracing - Considerations for public health and social measures in the workplace - Considerations for school-related public health measures - WHO Statement on false allegations in Der Spiegel - UN issues $6.7 billion appeal to protect millions in fragile countries - New guidance on preparedness and response in low capacity and humanitarian settings - Video summarises key moments in the response so far - WHO's Legal Counsel explains how observer status at the World Health Assembly is determined - WHO marks the International Day of the Midwife and Hand Hygiene Day - WHO's Principal Legal Officer responds to question about 31 December 2019 email sent by the Taiwan Centers for Disease Control - Global pledging event raises over 7.4 billion for COVID-19 research and development - New partnership with European Investment Bank announced - The Global Outbreak Alert and Response Network (GOARN) marks its 20th anniversary - WHO addresses parliamentarians on COVID-19 pandemic - WHO/Europe publishes guidance on the gradual easing of measures taken in response to COVID-19 - Global leaders unite to ensure equitable access new vaccines, tests and treatments for COVID-19",
            "context_id": "95f514cc105df05eede5c86cf2fb5d8f15ad73d8-C010",
            "text": "Event notice with video stream",
            "sentences": [
                {
                    "sentence_id": "95f514cc105df05eede5c86cf2fb5d8f15ad73d8-C010-S000",
                    "start": 0,
                    "end": 30
                }
            ]
        },
        {
            "section": "Rolling updates on coronavirus disease (COVID-19) - Events as they happen - Summary - WHO and UNHCR join forces to improve health services for refugees, displaced and stateless people - Key materials - WHO supports Smithsonian Science Education Center with launch of COVID-19 Guide for Youth - Key materials - UN launches 'Verified' initiative - Key materials - Day 2 of 73rd World Health Assembly - Day 1 of 73rd World Health Assembly - Independent Oversight and Advisory Committee releases interim report on COVID-19 response - WHO Results Report launched - 3rd Walk the Talk: Health for All Challenge goes virtual - WHO teams up with the International Olympic Committee to improve health through sport - Explainer of WHO and the World Health Assembly - Special World Health Assembly talk with Professor Devi Sridhar - WHO and Costa Rica preview technology pooling initiative - WHO scientific brief on multisystem inflammatory syndrome in children and adolescents with COVID-19 - WHO Gender and COVID-19 Advocacy Brief - WHO Academy and WHO Info apps launch - UN Policy Brief on COVID-19 and the need for action on mental health - WHO statement on tobacco use and COVID-19 - #AskWHO on breastfeeding during COVID-19 - Key materials - COVID-19-related service disruptions could cause hundreds of thousands of extra deaths from HIV - Key materials - New guidance on surveillance strategies for COVID-19 human infection - New guidance on contact tracing - Considerations for public health and social measures in the workplace - Considerations for school-related public health measures - WHO Statement on false allegations in Der Spiegel - UN issues $6.7 billion appeal to protect millions in fragile countries - New guidance on preparedness and response in low capacity and humanitarian settings - Video summarises key moments in the response so far - WHO's Legal Counsel explains how observer status at the World Health Assembly is determined - WHO marks the International Day of the Midwife and Hand Hygiene Day - WHO's Principal Legal Officer responds to question about 31 December 2019 email sent by the Taiwan Centers for Disease Control - Global pledging event raises over 7.4 billion for COVID-19 research and development - New partnership with European Investment Bank announced - The Global Outbreak Alert and Response Network (GOARN) marks its 20th anniversary - WHO addresses parliamentarians on COVID-19 pandemic - WHO/Europe publishes guidance on the gradual easing of measures taken in response to COVID-19 - Global leaders unite to ensure equitable access new vaccines, tests and treatments for COVID-19 - OpenWHO reaches 2 million course enrollments - 2020 could see a doubling of malaria deaths in sub-Saharan Africa compared to 2018 - WHO collaborates with WTO on resolving disruption to global supply chains - New joint effort to reach billions who are offline with vital health information - WHO makes joint UN call to fund the global emergency logistics system - One World: Together At Home concert - Interim guidance on adjusting \"lockdown\" measures issued - How the World Health Organization works with all people, everywhere - Interim Ramadan guidance issued - A relentless commitment to science, solutions and solidarity - WHO launches a chatbot on Facebook Messenger to combat COVID-19 misinformation - Measles and Rubella Initiative responds to COVID-19 - COVID-19 Strategy Update released - Major update to COVID-19 dashboard - Major relief airlift will bring vital medical supplies to all African nations - Expert group forms to collaborate on vaccine development - Five Heroic Acts campaign goes live - COVID-19 response reaches the 100 day mark - Book released to help children and young people cope with COVID-19 - Launch of the UN COVID-19 Supply Chain Task Force - New tools to help hospitals manage surge in COVID-19 patients - Ad-hoc consultation on managing the COVID-19 infodemic - Nurses and midwives celebrated on World Health Day - 133 countries provided with critical supplies - Advice on the use of masks - WHO launches #BeActive campaign with FIFA - WHO helps boost availability of COVID-19 laboratory supplies in Iraq - Mission to Spain concludes - IMF and WHO make joint call to protect lives & livelihoods - Trio of broadcasters donate free airtime to WHO - #HealthyAtHome campaign begins - 'Read the World' launches on International Childrens Book Day - Polio programme supports COVID-19 response - New tool to analyse COVID-19 responses across Europe launched - WHO in Africa holds first hackathon for COVID-19 - WHO launches chatbot with Rakuten Viber - Falsified medical products, including in vitro diagnostics, that claim to prevent, detect, treat or cure COVID-19 - Updated guidance on maintaining access to health services - WHO WhatsApp health alert launches in Arabic, French and Spanish - Extraordinary Virtual G20 Leaders Summit on COVID-19 - Mission to Egypt concludes - UN launches COVID-19 Global Humanitarian Response Plan to #InvestInHumanity - Off-label use of medicines for COVID-19 - WHO and FIFA team up on campaign to kick out coronavirus - 23 March 2020 - WHO Health Alert for coronavirus launches on WhatsApp - Young people \"are not invincible\" - #AskWHO on disability considerations during COVID-19 - UN Secretary-General calls for solidarity, hope and political will - WHO Regional Office for Africa holds joint COVID-19 media briefing with World Economic Forum - Launch of SOLIDARITY trial - More than 320 000 learners enrol in online COVID-19 courses - WHO calls for urgent, aggressive actions to combat COVID-19, as cases soar in South-East Asia Region - New guidance on people affected by humanitarian crises - #TogetherAtHome online concert series starts",
            "context_id": "95f514cc105df05eede5c86cf2fb5d8f15ad73d8-C011",
            "text": "View this post on Instagram",
            "sentences": [
                {
                    "sentence_id": "95f514cc105df05eede5c86cf2fb5d8f15ad73d8-C011-S000",
                    "start": 0,
                    "end": 27
                }
            ]
        },
        {
            "section": "Rolling updates on coronavirus disease (COVID-19) - Events as they happen - Summary - WHO and UNHCR join forces to improve health services for refugees, displaced and stateless people - Key materials - WHO supports Smithsonian Science Education Center with launch of COVID-19 Guide for Youth - Key materials - UN launches 'Verified' initiative - Key materials - Day 2 of 73rd World Health Assembly - Day 1 of 73rd World Health Assembly - Independent Oversight and Advisory Committee releases interim report on COVID-19 response - WHO Results Report launched - 3rd Walk the Talk: Health for All Challenge goes virtual - WHO teams up with the International Olympic Committee to improve health through sport - Explainer of WHO and the World Health Assembly - Special World Health Assembly talk with Professor Devi Sridhar - WHO and Costa Rica preview technology pooling initiative - WHO scientific brief on multisystem inflammatory syndrome in children and adolescents with COVID-19 - WHO Gender and COVID-19 Advocacy Brief - WHO Academy and WHO Info apps launch - UN Policy Brief on COVID-19 and the need for action on mental health - WHO statement on tobacco use and COVID-19 - #AskWHO on breastfeeding during COVID-19 - Key materials - COVID-19-related service disruptions could cause hundreds of thousands of extra deaths from HIV - Key materials - New guidance on surveillance strategies for COVID-19 human infection - New guidance on contact tracing - Considerations for public health and social measures in the workplace - Considerations for school-related public health measures - WHO Statement on false allegations in Der Spiegel - UN issues $6.7 billion appeal to protect millions in fragile countries - New guidance on preparedness and response in low capacity and humanitarian settings - Video summarises key moments in the response so far - WHO's Legal Counsel explains how observer status at the World Health Assembly is determined - WHO marks the International Day of the Midwife and Hand Hygiene Day - WHO's Principal Legal Officer responds to question about 31 December 2019 email sent by the Taiwan Centers for Disease Control - Global pledging event raises over 7.4 billion for COVID-19 research and development - New partnership with European Investment Bank announced - The Global Outbreak Alert and Response Network (GOARN) marks its 20th anniversary - WHO addresses parliamentarians on COVID-19 pandemic - WHO/Europe publishes guidance on the gradual easing of measures taken in response to COVID-19 - Global leaders unite to ensure equitable access new vaccines, tests and treatments for COVID-19 - OpenWHO reaches 2 million course enrollments - 2020 could see a doubling of malaria deaths in sub-Saharan Africa compared to 2018 - WHO collaborates with WTO on resolving disruption to global supply chains - New joint effort to reach billions who are offline with vital health information - WHO makes joint UN call to fund the global emergency logistics system - One World: Together At Home concert - Interim guidance on adjusting \"lockdown\" measures issued - How the World Health Organization works with all people, everywhere - Interim Ramadan guidance issued - A relentless commitment to science, solutions and solidarity - WHO launches a chatbot on Facebook Messenger to combat COVID-19 misinformation - Measles and Rubella Initiative responds to COVID-19 - COVID-19 Strategy Update released - Major update to COVID-19 dashboard - Major relief airlift will bring vital medical supplies to all African nations - Expert group forms to collaborate on vaccine development - Five Heroic Acts campaign goes live - COVID-19 response reaches the 100 day mark - Book released to help children and young people cope with COVID-19 - Launch of the UN COVID-19 Supply Chain Task Force - New tools to help hospitals manage surge in COVID-19 patients - Ad-hoc consultation on managing the COVID-19 infodemic - Nurses and midwives celebrated on World Health Day - 133 countries provided with critical supplies - Advice on the use of masks - WHO launches #BeActive campaign with FIFA - WHO helps boost availability of COVID-19 laboratory supplies in Iraq - Mission to Spain concludes - IMF and WHO make joint call to protect lives & livelihoods - Trio of broadcasters donate free airtime to WHO - #HealthyAtHome campaign begins - 'Read the World' launches on International Childrens Book Day - Polio programme supports COVID-19 response - New tool to analyse COVID-19 responses across Europe launched - WHO in Africa holds first hackathon for COVID-19 - WHO launches chatbot with Rakuten Viber - Falsified medical products, including in vitro diagnostics, that claim to prevent, detect, treat or cure COVID-19 - Updated guidance on maintaining access to health services - WHO WhatsApp health alert launches in Arabic, French and Spanish - Extraordinary Virtual G20 Leaders Summit on COVID-19 - Mission to Egypt concludes - UN launches COVID-19 Global Humanitarian Response Plan to #InvestInHumanity - Off-label use of medicines for COVID-19 - WHO and FIFA team up on campaign to kick out coronavirus - 23 March 2020 - WHO Health Alert for coronavirus launches on WhatsApp - Young people \"are not invincible\" - #AskWHO on disability considerations during COVID-19 - UN Secretary-General calls for solidarity, hope and political will - WHO Regional Office for Africa holds joint COVID-19 media briefing with World Economic Forum - Launch of SOLIDARITY trial - More than 320 000 learners enrol in online COVID-19 courses - WHO calls for urgent, aggressive actions to combat COVID-19, as cases soar in South-East Asia Region - New guidance on people affected by humanitarian crises - #TogetherAtHome online concert series starts - \"You cannot fight a fire blindfolded.\" - WHO Mission to Iraq covers detection and response - Launch of #SafeHands Challenge - Europe becomes epicenter of the pandemic - Updated clinical guidance - WHO, UN Foundation and partners launch first-of-its-kind COVID-19 Solidarity Response Fund - Expert mission to Iran concludes - Azerbaijan welcomes WHO mission - WHO characterizes COVID-19 as a pandemic - WHO issues schools guidance with UNICEF and IFRC - Mental health and COVID-19 - The rule of the game is: never give up. - Interim guidance on critical preparedness, readiness and response actions - Marking 100 000 cases - WHO publishes draft R&D blueprint draft for COVID-19 - Launch of Be Ready campaign",
            "context_id": "95f514cc105df05eede5c86cf2fb5d8f15ad73d8-C012",
            "text": "WHO Director-General's opening remarks at the media briefing on COVID-19 - 5 March 2020",
            "sentences": [
                {
                    "sentence_id": "95f514cc105df05eede5c86cf2fb5d8f15ad73d8-C012-S000",
                    "start": 0,
                    "end": 87
                }
            ]
        }
    ]
}