{
    "document_id": "be5edea77fcbed022e672b9cc8380d0bd2e56eb9",
    "metadata": {
        "title": "Event Planning and COVID-19: Questions and Answers",
        "url": "https://www.cdc.gov/coronavirus/2019-ncov/community/large-events/event-planners-and-attendees-faq.html"
    },
    "contexts": [
        {
            "section": null,
            "context_id": "be5edea77fcbed022e672b9cc8380d0bd2e56eb9-C000",
            "text": "Information for Event Planners and Individuals",
            "sentences": [
                {
                    "sentence_id": "be5edea77fcbed022e672b9cc8380d0bd2e56eb9-C000-S000",
                    "start": 0,
                    "end": 46
                }
            ]
        },
        {
            "section": "Planning and Preparedness",
            "context_id": "be5edea77fcbed022e672b9cc8380d0bd2e56eb9-C001",
            "text": "What actions should I take to plan for an outbreak? Creating an emergency plan for mass gatherings and large community events, such as concerts and sporting events, can help protect the health of your staff, attendees, and the local community. This planning should include: Encouraging staff and attendees to stay home if sick. Developing flexible refund policies for attendees. Providing supplies for attendees and staff that can be used to help prevent the spread of germs. Consulting local public health officials about your event. What actions can staff and attendees take to prevent the spread of COVID-19? Encourage staff and attendees to take everyday preventive actions to help prevent the spread of respiratory illnesses, such as COVID-19. This includes: Cleaning your hands often. Avoiding close contact with people who are sick. Staying home when you are sick. Covering coughs and sneezes with a tissue or the inside of your elbow. Cleaning and disinfecting frequently touched surfaces. What are things to consider when determining if an event needs to be postponed or canceled? Consult with local public health officials and continually assess, based on current conditions, whether to postpone, cancel, or significantly reduce the number of attendees (if possible) at an event or gathering. ",
            "sentences": [
                {
                    "sentence_id": "be5edea77fcbed022e672b9cc8380d0bd2e56eb9-C001-S000",
                    "start": 0,
                    "end": 51
                },
                {
                    "sentence_id": "be5edea77fcbed022e672b9cc8380d0bd2e56eb9-C001-S001",
                    "start": 52,
                    "end": 243
                },
                {
                    "sentence_id": "be5edea77fcbed022e672b9cc8380d0bd2e56eb9-C001-S002",
                    "start": 244,
                    "end": 327
                },
                {
                    "sentence_id": "be5edea77fcbed022e672b9cc8380d0bd2e56eb9-C001-S003",
                    "start": 328,
                    "end": 378
                },
                {
                    "sentence_id": "be5edea77fcbed022e672b9cc8380d0bd2e56eb9-C001-S004",
                    "start": 379,
                    "end": 475
                },
                {
                    "sentence_id": "be5edea77fcbed022e672b9cc8380d0bd2e56eb9-C001-S005",
                    "start": 476,
                    "end": 534
                },
                {
                    "sentence_id": "be5edea77fcbed022e672b9cc8380d0bd2e56eb9-C001-S006",
                    "start": 535,
                    "end": 611
                },
                {
                    "sentence_id": "be5edea77fcbed022e672b9cc8380d0bd2e56eb9-C001-S007",
                    "start": 612,
                    "end": 748
                },
                {
                    "sentence_id": "be5edea77fcbed022e672b9cc8380d0bd2e56eb9-C001-S008",
                    "start": 749,
                    "end": 790
                },
                {
                    "sentence_id": "be5edea77fcbed022e672b9cc8380d0bd2e56eb9-C001-S009",
                    "start": 791,
                    "end": 839
                },
                {
                    "sentence_id": "be5edea77fcbed022e672b9cc8380d0bd2e56eb9-C001-S010",
                    "start": 840,
                    "end": 871
                },
                {
                    "sentence_id": "be5edea77fcbed022e672b9cc8380d0bd2e56eb9-C001-S011",
                    "start": 872,
                    "end": 942
                },
                {
                    "sentence_id": "be5edea77fcbed022e672b9cc8380d0bd2e56eb9-C001-S012",
                    "start": 943,
                    "end": 997
                },
                {
                    "sentence_id": "be5edea77fcbed022e672b9cc8380d0bd2e56eb9-C001-S013",
                    "start": 998,
                    "end": 1089
                },
                {
                    "sentence_id": "be5edea77fcbed022e672b9cc8380d0bd2e56eb9-C001-S014",
                    "start": 1090,
                    "end": 1302
                }
            ]
        },
        {
            "section": "Planning and Preparedness",
            "context_id": "be5edea77fcbed022e672b9cc8380d0bd2e56eb9-C002",
            "text": "When determining if you should postpone or cancel a large gathering or event, consider the: Overall number of attendees or crowd size. Number of attendees who are at higher risk of developing serious illness from COVID-19. This includes older adults and people with underlying health problems such as lung or heart disease and diabetes. How close together attendees will be at the event. Potential ways to minimize economic impact to attendees, staff, and the local community. Amount of spread in local community and the communities from where your attendees are likely to travel. Needs and capacity of the local community to host or participate in your event. Is there information I can share with staff and attendees about COVID-19? Share these resources to help people understand COVID-19 and steps they can take to help protect themselves: Prevention and Treatment What to Do If You Are Sick Groups at Higher Risk FAQs: Pregnant Women and COVID-19 FAQs: Coronavirus Disease-2019 (COVID-19) and Children Handwashing: A Family Activity Handwashing: Clean Hands Save Lives",
            "sentences": [
                {
                    "sentence_id": "be5edea77fcbed022e672b9cc8380d0bd2e56eb9-C002-S000",
                    "start": 0,
                    "end": 134
                },
                {
                    "sentence_id": "be5edea77fcbed022e672b9cc8380d0bd2e56eb9-C002-S001",
                    "start": 135,
                    "end": 222
                },
                {
                    "sentence_id": "be5edea77fcbed022e672b9cc8380d0bd2e56eb9-C002-S002",
                    "start": 223,
                    "end": 336
                },
                {
                    "sentence_id": "be5edea77fcbed022e672b9cc8380d0bd2e56eb9-C002-S003",
                    "start": 337,
                    "end": 387
                },
                {
                    "sentence_id": "be5edea77fcbed022e672b9cc8380d0bd2e56eb9-C002-S004",
                    "start": 388,
                    "end": 476
                },
                {
                    "sentence_id": "be5edea77fcbed022e672b9cc8380d0bd2e56eb9-C002-S005",
                    "start": 477,
                    "end": 580
                },
                {
                    "sentence_id": "be5edea77fcbed022e672b9cc8380d0bd2e56eb9-C002-S006",
                    "start": 581,
                    "end": 660
                },
                {
                    "sentence_id": "be5edea77fcbed022e672b9cc8380d0bd2e56eb9-C002-S007",
                    "start": 661,
                    "end": 681
                },
                {
                    "sentence_id": "be5edea77fcbed022e672b9cc8380d0bd2e56eb9-C002-S008",
                    "start": 682,
                    "end": 734
                },
                {
                    "sentence_id": "be5edea77fcbed022e672b9cc8380d0bd2e56eb9-C002-S009",
                    "start": 735,
                    "end": 868
                },
                {
                    "sentence_id": "be5edea77fcbed022e672b9cc8380d0bd2e56eb9-C002-S010",
                    "start": 869,
                    "end": 1019
                },
                {
                    "sentence_id": "be5edea77fcbed022e672b9cc8380d0bd2e56eb9-C002-S011",
                    "start": 1020,
                    "end": 1050
                },
                {
                    "sentence_id": "be5edea77fcbed022e672b9cc8380d0bd2e56eb9-C002-S012",
                    "start": 1051,
                    "end": 1073
                }
            ]
        },
        {
            "section": "Confirmed cases of COVID-19 in the community",
            "context_id": "be5edea77fcbed022e672b9cc8380d0bd2e56eb9-C003",
            "text": "Do I need to cancel an event if there are confirmed cases of COVID-19 in the community? If there is minimal or moderate spread of COVID-19 in the community, CDC recommends cancelling an: event that includes 250 people or more. 3/29/20 UPDATE: The President?s Coronavirus Guidelines for America?Slow the Spread of Coronavirus (COVID-19): More Information on Mass Gatherings Read the White House noticepdf iconexternal iconpdf iconexternal icon event likely to have 10 or more people who are at higher risk of serious COVID-19 illness. This includes older adults and people with underlying health problems such as lung or heart disease and diabetes. If there is substantial spread of COVID-19 in the community, CDC recommends cancelling events of any size. See guidance for definitions of minimal, moderate, and substantial spreadpdf iconpdf icon.",
            "sentences": [
                {
                    "sentence_id": "be5edea77fcbed022e672b9cc8380d0bd2e56eb9-C003-S000",
                    "start": 0,
                    "end": 87
                },
                {
                    "sentence_id": "be5edea77fcbed022e672b9cc8380d0bd2e56eb9-C003-S001",
                    "start": 88,
                    "end": 226
                },
                {
                    "sentence_id": "be5edea77fcbed022e672b9cc8380d0bd2e56eb9-C003-S002",
                    "start": 227,
                    "end": 234
                },
                {
                    "sentence_id": "be5edea77fcbed022e672b9cc8380d0bd2e56eb9-C003-S003",
                    "start": 235,
                    "end": 242
                },
                {
                    "sentence_id": "be5edea77fcbed022e672b9cc8380d0bd2e56eb9-C003-S004",
                    "start": 243,
                    "end": 298
                },
                {
                    "sentence_id": "be5edea77fcbed022e672b9cc8380d0bd2e56eb9-C003-S005",
                    "start": 299,
                    "end": 336
                },
                {
                    "sentence_id": "be5edea77fcbed022e672b9cc8380d0bd2e56eb9-C003-S006",
                    "start": 337,
                    "end": 533
                },
                {
                    "sentence_id": "be5edea77fcbed022e672b9cc8380d0bd2e56eb9-C003-S007",
                    "start": 534,
                    "end": 647
                },
                {
                    "sentence_id": "be5edea77fcbed022e672b9cc8380d0bd2e56eb9-C003-S008",
                    "start": 648,
                    "end": 754
                },
                {
                    "sentence_id": "be5edea77fcbed022e672b9cc8380d0bd2e56eb9-C003-S009",
                    "start": 755,
                    "end": 845
                }
            ]
        },
        {
            "section": "Confirmed case of COVID-19 at an event",
            "context_id": "be5edea77fcbed022e672b9cc8380d0bd2e56eb9-C004",
            "text": "What steps should I take if an attendee or staff person develops symptoms of COVID-19 while at the event? If a staff member or attendee becomes sick at your event, separate them from others as soon as possible and until they can go home. Provide them with clean, disposable facemaskspdf iconpdf icon to wear, if available. If not available, provide them with a tissue or some other way to cover their coughs and sneezes. If needed, contact emergency services for those who need emergency care. Public transportation, shared rides, and taxis should be avoided for sick persons. Be sure to contact local public health officials regarding the possible case of COVID-19 at your event and how to communicate with staff and attendees about possible exposure to the virus. Read more about preventing the spread of COVID-19 if someone is sick. What is the best way to clean and disinfect the event space after a confirmed case of COVID-19 at my event? CDC has guidance for cleaning and disinfecting rooms and areas where a person with suspected or confirmed COVID-19 has visited. See Environmental Cleaning and Disinfection Recommendations.",
            "sentences": [
                {
                    "sentence_id": "be5edea77fcbed022e672b9cc8380d0bd2e56eb9-C004-S000",
                    "start": 0,
                    "end": 105
                },
                {
                    "sentence_id": "be5edea77fcbed022e672b9cc8380d0bd2e56eb9-C004-S001",
                    "start": 106,
                    "end": 237
                },
                {
                    "sentence_id": "be5edea77fcbed022e672b9cc8380d0bd2e56eb9-C004-S002",
                    "start": 238,
                    "end": 322
                },
                {
                    "sentence_id": "be5edea77fcbed022e672b9cc8380d0bd2e56eb9-C004-S003",
                    "start": 323,
                    "end": 420
                },
                {
                    "sentence_id": "be5edea77fcbed022e672b9cc8380d0bd2e56eb9-C004-S004",
                    "start": 421,
                    "end": 493
                },
                {
                    "sentence_id": "be5edea77fcbed022e672b9cc8380d0bd2e56eb9-C004-S005",
                    "start": 494,
                    "end": 576
                },
                {
                    "sentence_id": "be5edea77fcbed022e672b9cc8380d0bd2e56eb9-C004-S006",
                    "start": 577,
                    "end": 765
                },
                {
                    "sentence_id": "be5edea77fcbed022e672b9cc8380d0bd2e56eb9-C004-S007",
                    "start": 766,
                    "end": 835
                },
                {
                    "sentence_id": "be5edea77fcbed022e672b9cc8380d0bd2e56eb9-C004-S008",
                    "start": 836,
                    "end": 943
                },
                {
                    "sentence_id": "be5edea77fcbed022e672b9cc8380d0bd2e56eb9-C004-S009",
                    "start": 944,
                    "end": 1071
                },
                {
                    "sentence_id": "be5edea77fcbed022e672b9cc8380d0bd2e56eb9-C004-S010",
                    "start": 1072,
                    "end": 1132
                }
            ]
        },
        {
            "section": "Event cancellations",
            "context_id": "be5edea77fcbed022e672b9cc8380d0bd2e56eb9-C005",
            "text": "When does CDC recommend that I cancel or postpone an event? If there is minimal or moderate spread of COVID-19 in the community, CDC recommends cancelling an: event that includes 250 people or more. 3/16/20 UPDATE: During the next 15 days, all U.S. events of 10+ people should be cancelled or held virtually. More Information on Mass Gatherings Read the White House noticepdf iconexternal iconpdf iconexternal icon event likely to have 10 or more people who are at higher risk of serious COVID-19 illness. This includes older adults and people with underlying health problems such as lung or heart disease and diabetes. If there is substantial spread of COVID-19 in the community, CDC recommends cancelling events of any size. See page 9 of CDC?s Community Mitigation Framework or definitions of ?minimal, moderate, and substantial spreadpdf iconpdf icon.?",
            "sentences": [
                {
                    "sentence_id": "be5edea77fcbed022e672b9cc8380d0bd2e56eb9-C005-S000",
                    "start": 0,
                    "end": 59
                },
                {
                    "sentence_id": "be5edea77fcbed022e672b9cc8380d0bd2e56eb9-C005-S001",
                    "start": 60,
                    "end": 198
                },
                {
                    "sentence_id": "be5edea77fcbed022e672b9cc8380d0bd2e56eb9-C005-S002",
                    "start": 199,
                    "end": 206
                },
                {
                    "sentence_id": "be5edea77fcbed022e672b9cc8380d0bd2e56eb9-C005-S003",
                    "start": 207,
                    "end": 214
                },
                {
                    "sentence_id": "be5edea77fcbed022e672b9cc8380d0bd2e56eb9-C005-S004",
                    "start": 215,
                    "end": 308
                },
                {
                    "sentence_id": "be5edea77fcbed022e672b9cc8380d0bd2e56eb9-C005-S005",
                    "start": 309,
                    "end": 505
                },
                {
                    "sentence_id": "be5edea77fcbed022e672b9cc8380d0bd2e56eb9-C005-S006",
                    "start": 506,
                    "end": 619
                },
                {
                    "sentence_id": "be5edea77fcbed022e672b9cc8380d0bd2e56eb9-C005-S007",
                    "start": 620,
                    "end": 726
                },
                {
                    "sentence_id": "be5edea77fcbed022e672b9cc8380d0bd2e56eb9-C005-S008",
                    "start": 727,
                    "end": 797
                },
                {
                    "sentence_id": "be5edea77fcbed022e672b9cc8380d0bd2e56eb9-C005-S009",
                    "start": 797,
                    "end": 856
                }
            ]
        },
        {
            "section": "",
            "context_id": "be5edea77fcbed022e672b9cc8380d0bd2e56eb9-C006",
            "text": "The President?s Coronavirus Guidelines for America -- Slow the Spread of Coronavirus (COVID-19) More at Whitehouse.govpdf iconexternal icon.",
            "sentences": [
                {
                    "sentence_id": "be5edea77fcbed022e672b9cc8380d0bd2e56eb9-C006-S000",
                    "start": 0,
                    "end": 140
                }
            ]
        },
        {
            "section": "What actions should I take to plan for an outbreak?",
            "context_id": "be5edea77fcbed022e672b9cc8380d0bd2e56eb9-C007",
            "text": "Creating an emergency plan for mass gatherings and large community events, such as concerts and sporting events, can help protect the health of your staff, attendees, and the local community. This planning should include:",
            "sentences": [
                {
                    "sentence_id": "be5edea77fcbed022e672b9cc8380d0bd2e56eb9-C007-S000",
                    "start": 0,
                    "end": 191
                },
                {
                    "sentence_id": "be5edea77fcbed022e672b9cc8380d0bd2e56eb9-C007-S001",
                    "start": 192,
                    "end": 221
                }
            ]
        },
        {
            "section": "What actions can staff and attendees take to prevent the spread of COVID-19?",
            "context_id": "be5edea77fcbed022e672b9cc8380d0bd2e56eb9-C008",
            "text": "Encourage staff and attendees to take everyday preventive actions to help prevent the spread of respiratory illnesses, such as COVID-19. This includes:",
            "sentences": [
                {
                    "sentence_id": "be5edea77fcbed022e672b9cc8380d0bd2e56eb9-C008-S000",
                    "start": 0,
                    "end": 136
                },
                {
                    "sentence_id": "be5edea77fcbed022e672b9cc8380d0bd2e56eb9-C008-S001",
                    "start": 137,
                    "end": 151
                }
            ]
        },
        {
            "section": "What are things to consider when determining if an event needs to be postponed or canceled?",
            "context_id": "be5edea77fcbed022e672b9cc8380d0bd2e56eb9-C009",
            "text": "Consult with local public health officials and continually assess, based on current conditions, whether to postpone, cancel, or significantly reduce the number of attendees (if possible) at an event or gathering. When determining if you should postpone or cancel a large gathering or event, consider the:",
            "sentences": [
                {
                    "sentence_id": "be5edea77fcbed022e672b9cc8380d0bd2e56eb9-C009-S000",
                    "start": 0,
                    "end": 212
                },
                {
                    "sentence_id": "be5edea77fcbed022e672b9cc8380d0bd2e56eb9-C009-S001",
                    "start": 213,
                    "end": 304
                }
            ]
        },
        {
            "section": "Is there information I can share with staff and attendees about COVID-19?",
            "context_id": "be5edea77fcbed022e672b9cc8380d0bd2e56eb9-C010",
            "text": "Share these resources to help people understand COVID-19 and steps they can take to help protect themselves:",
            "sentences": [
                {
                    "sentence_id": "be5edea77fcbed022e672b9cc8380d0bd2e56eb9-C010-S000",
                    "start": 0,
                    "end": 108
                }
            ]
        },
        {
            "section": "Do I need to cancel an event if there are confirmed cases of COVID-19 in the community?",
            "context_id": "be5edea77fcbed022e672b9cc8380d0bd2e56eb9-C011",
            "text": "If there is minimal or moderate spread of COVID-19 in the community, CDC recommends cancelling an:",
            "sentences": [
                {
                    "sentence_id": "be5edea77fcbed022e672b9cc8380d0bd2e56eb9-C011-S000",
                    "start": 0,
                    "end": 98
                }
            ]
        },
        {
            "section": "What steps should I take if an attendee or staff person develops symptoms of COVID-19 while at the event?",
            "context_id": "be5edea77fcbed022e672b9cc8380d0bd2e56eb9-C012",
            "text": "If a staff member or attendee becomes sick at your event, separate them from others as soon as possible and until they can go home. Provide them with clean, disposable facemaskspdf iconpdf icon to wear, if available. If not available, provide them with a tissue or some other way to cover their coughs and sneezes. If needed, contact emergency services for those who need emergency care. Public transportation, shared rides, and taxis should be avoided for sick persons. Be sure to contact local public health officials regarding the possible case of COVID-19 at your event and how to communicate with staff and attendees about possible exposure to the virus. Read more about preventing the spread of COVID-19 if someone is sick.",
            "sentences": [
                {
                    "sentence_id": "be5edea77fcbed022e672b9cc8380d0bd2e56eb9-C012-S000",
                    "start": 0,
                    "end": 131
                },
                {
                    "sentence_id": "be5edea77fcbed022e672b9cc8380d0bd2e56eb9-C012-S001",
                    "start": 132,
                    "end": 216
                },
                {
                    "sentence_id": "be5edea77fcbed022e672b9cc8380d0bd2e56eb9-C012-S002",
                    "start": 217,
                    "end": 314
                },
                {
                    "sentence_id": "be5edea77fcbed022e672b9cc8380d0bd2e56eb9-C012-S003",
                    "start": 315,
                    "end": 387
                },
                {
                    "sentence_id": "be5edea77fcbed022e672b9cc8380d0bd2e56eb9-C012-S004",
                    "start": 388,
                    "end": 470
                },
                {
                    "sentence_id": "be5edea77fcbed022e672b9cc8380d0bd2e56eb9-C012-S005",
                    "start": 471,
                    "end": 659
                },
                {
                    "sentence_id": "be5edea77fcbed022e672b9cc8380d0bd2e56eb9-C012-S006",
                    "start": 660,
                    "end": 729
                }
            ]
        },
        {
            "section": "What is the best way to clean and disinfect the event space after a confirmed case of COVID-19 at my event?",
            "context_id": "be5edea77fcbed022e672b9cc8380d0bd2e56eb9-C013",
            "text": "CDC has guidance for cleaning and disinfecting rooms and areas where a person with suspected or confirmed COVID-19 has visited. See Environmental Cleaning and Disinfection Recommendations.",
            "sentences": [
                {
                    "sentence_id": "be5edea77fcbed022e672b9cc8380d0bd2e56eb9-C013-S000",
                    "start": 0,
                    "end": 127
                },
                {
                    "sentence_id": "be5edea77fcbed022e672b9cc8380d0bd2e56eb9-C013-S001",
                    "start": 128,
                    "end": 188
                }
            ]
        },
        {
            "section": "When does CDC recommend that I cancel or postpone an event?",
            "context_id": "be5edea77fcbed022e672b9cc8380d0bd2e56eb9-C014",
            "text": "If there is minimal or moderate spread of COVID-19 in the community, CDC recommends cancelling an:",
            "sentences": [
                {
                    "sentence_id": "be5edea77fcbed022e672b9cc8380d0bd2e56eb9-C014-S000",
                    "start": 0,
                    "end": 98
                }
            ]
        }
    ]
}