{
    "document_id": "e50926e5a6cfff7596986c958eed60d463c85cd3",
    "metadata": {
        "title": "What Bus Transit Operators Need to Know About COVID-19",
        "url": "https://www.cdc.gov/coronavirus/2019-ncov/community/organizations/bus-transit-operator.html"
    },
    "contexts": [
        {
            "section": "",
            "context_id": "e50926e5a6cfff7596986c958eed60d463c85cd3-C000",
            "text": "Coronavirus disease 2019 (COVID-19) is a respiratory illness caused by a virus called SARS-CoV-2. Symptoms often include a fever, cough or shortness of breath. Our understanding of how the virus is spreading is evolving as we learn more about it, so check the CDC website for the latest information. The virus is thought to spread mainly from person-to-person:",
            "sentences": [
                {
                    "sentence_id": "e50926e5a6cfff7596986c958eed60d463c85cd3-C000-S000",
                    "start": 0,
                    "end": 97
                },
                {
                    "sentence_id": "e50926e5a6cfff7596986c958eed60d463c85cd3-C000-S001",
                    "start": 98,
                    "end": 159
                },
                {
                    "sentence_id": "e50926e5a6cfff7596986c958eed60d463c85cd3-C000-S002",
                    "start": 160,
                    "end": 299
                },
                {
                    "sentence_id": "e50926e5a6cfff7596986c958eed60d463c85cd3-C000-S003",
                    "start": 300,
                    "end": 360
                }
            ]
        },
        {
            "section": "As a bus transit operator, how can I protect myself?",
            "context_id": "e50926e5a6cfff7596986c958eed60d463c85cd3-C001",
            "text": "For bus transit operators, potential sources of exposure include having close contact with a bus passenger with COVID-19 or by contacting surfaces touched or handled by a person with COVID-19.",
            "sentences": [
                {
                    "sentence_id": "e50926e5a6cfff7596986c958eed60d463c85cd3-C001-S000",
                    "start": 0,
                    "end": 192
                }
            ]
        },
        {
            "section": "What steps should my employer take?",
            "context_id": "e50926e5a6cfff7596986c958eed60d463c85cd3-C002",
            "text": "Employers of bus transit operators should develop a COVID-19 health and safety plan to protect employees according to CDC business guidance. This plan should be shared with you and your coworkers. Your employer should:",
            "sentences": [
                {
                    "sentence_id": "e50926e5a6cfff7596986c958eed60d463c85cd3-C002-S000",
                    "start": 0,
                    "end": 140
                },
                {
                    "sentence_id": "e50926e5a6cfff7596986c958eed60d463c85cd3-C002-S001",
                    "start": 141,
                    "end": 196
                },
                {
                    "sentence_id": "e50926e5a6cfff7596986c958eed60d463c85cd3-C002-S002",
                    "start": 197,
                    "end": 218
                }
            ]
        },
        {
            "section": "Where can I get more information?",
            "context_id": "e50926e5a6cfff7596986c958eed60d463c85cd3-C003",
            "text": "Stay informed. Talk to your employer, supervisor, union representative, or agency personnel who are responsible for responding to COVID-19 concerns. See these sources for more information on worker exposures to COVID-19:",
            "sentences": [
                {
                    "sentence_id": "e50926e5a6cfff7596986c958eed60d463c85cd3-C003-S000",
                    "start": 0,
                    "end": 14
                },
                {
                    "sentence_id": "e50926e5a6cfff7596986c958eed60d463c85cd3-C003-S001",
                    "start": 15,
                    "end": 148
                },
                {
                    "sentence_id": "e50926e5a6cfff7596986c958eed60d463c85cd3-C003-S002",
                    "start": 149,
                    "end": 220
                }
            ]
        }
    ]
}