	Question	Document	Context	Answer	Nuggets	Distance	Score	Similarity
0	what is the origin of COVID-19	Outbreak of a new coronavirus: what anaesthetists should know	[CLS] what is the origin of covid - 19 [SEP] conflicts of interest . [SEP]	an as yet unidentified intermediary animal	['spillover', 'positive selection pressure', 'the species barrier', 'potential mutations', 'genetic recombination', 'animal-to-human transmission', 'bat reservoirs', 'Codon usage bias', 'ancestral haplotypes', 'bat coronavirus genome', 'zoonotic origin', 'seafood wholesale market in Wuhan', 'evolutionary constraints', 'pangolins', 'interspecies transmission', 'betacoronaviruses', 'viral fitness', 'molecular evolution', 'Chinese province of Hubei', 'Mammal species', 'Bats', 'virus adapation', 'species of origin', 'emergence']		tensor(978)	0.7103274706261096
1	how does the coronavirus respond to changes in the weather	‘A monstrous threat’: how a state of exception turns into a ‘new normal’	[CLS] how does the coronavirus respond to changes in the weather [SEP] this article explores the factors that helped covid - 19 to become a ‘ monstrous threat ’ to humanity , which legitimises significant restrictions to people ’ s freedom and is justified by the ethics to keep everyone safe it analyses how rigid means increase old inequalities and produce secondary risks and significant side - effects and demonstrates how , with social and economic costs soaring , governments seek ways back – not to the old normal – but new social practices and attitudes towards infectious diseases , thereby transforming the state of exception into a ‘ new normal ’ [SEP]	governments seek ways back – not to the old normal – but new social practices and attitudes towards infectious diseases	['recovery', 'similar virus behavior', 'UV effects', 'weather effect behavior', 'humidity effect on temp', 'climate', 'precipitation life', 'wind life', 'delay complications', 'immune response', 'humidity transmission', 'humidity life', 'air quality', 'atmosphere', 'seasonal effect', 'temp life', 'temp transmission']		tensor(198)	0.8350916008645677
2	will SARS-CoV2 infected people develop immunity? Is cross protection possible?	Key predictors of attending hospital with COVID19: An association study from the COVID Symptom Tracker App in 2,618,948 individuals	[CLS] will sars - cov2 infected people develop immunity ? is cross protection possible ? [SEP] has granted medrxiv a license to display the preprint in perpetuity . ( which was not certified by peer review ) the copyright holder for this preprint this version posted april 29 , 2020 . . [SEP]	develop immunity ? is cross protection possible ? [SEP] has granted medrxiv a license to display the preprint in perpetuity	[]		tensor(46)	0.8500232890765894
3	what causes death from Covid-19?	Outbreak of a new coronavirus: what anaesthetists should know	[CLS] what causes death from covid - 19 ? [SEP] conflicts of interest . [SEP]	human - to - human spread	[]		tensor(1010)	0.659877088379201
4	what drugs have been active against SARS-CoV or SARS-CoV-2 in animal studies?	Pathophysiology of COVID-19: Why Children Fare Better than Adults?	[CLS] what drugs have been active against sars - cov or sars - cov - 2 in animal studies ? [SEP] mechanisms involve differences in ace - 2 expression , innate immunity , trained immunity and effects of the containment strategies including closure of schools and daycare centers . less degree of obesity , smoking high - risk group [SEP]	middle east respiratory syndrome coronavirus	['RDV', 'Omeprazol', 'Opipramol', 'Azithromycine', 'S227.14', 'S109.8', 'S230.15', 'chlorpromazine', 'cathepsin inhibitor', 'camostat', 'aprotinin', 'Cepharanthine', 'Nelfinavir', 'SARS-CoV-2-RBD binding agents', 'lopinavir-ritonavir', 'emtricitabine-tenofovir', 'hydroxychloroquine', 'Interferon beta', 'infacon-1', 'chloroquine', 'Remdesivir', 'Favipiravir']		tensor(995)	0.504181921165748
5	what types of rapid testing for Covid-19 have been developed?	An Update on Current Therapeutic Drugs Treating COVID-19	"[CLS] what types of rapid testing for covid - 19 have been developed ? [SEP] pro - inflammatory cytokine ( tnf - α , il - 6 , ccl - 2 / mcp - 1 , and cxcl - 10 / ip - 10 ) production at the mrna levels [ 171 ] . sangju yin and yinqiao san are commonly used in clinical treatment to clear "" lung heat , "" expel phlegm , relieve cough , regulate the patient ' s lungs , and restore normal lung function [ 172 ] . similarly , yinqiao san may have antibacterial and antiviral functions [ 172 ] . several clinical studies showed that tcm may bring new hope for the prevention and control of covid - 19 [ 173 ] [ 174 ] [ 175 ] . in general , it appears that tcm products were commonly used in covid - 19 patients with mild symptoms to severe symptoms and could prevent or block the diseases progression . although the precise molecular mechanisms currently are unknown , the potential role of anti - inflammatory / antioxidative stress , improving hypoxemia / hypoxia and antiviral activities , among others , could be some of the major drivers . further investigations in the future are needed to uncover the molecular mechanisms . conclusion the covid - 19 pandemic represents the greatest global public health crisis in the past 100 years . hopefully vaccines and or specific therapeutic drugs targeting sars - cov - 2 will be made available in the next few months or years . with the speed and volume of basic and clinical covid - 19 / sars - cov - 2 research to develop potential drugs and therapies for this disease , our hope will be on the horizon . [SEP]"	favipiravir	[]		tensor(901)	0.0
6	are there serological tests that detect antibodies to coronavirus?	Oral hygiene risk factor	[CLS] are there serological tests that detect antibodies to coronavirus ? [SEP]ions are common in patients suffering from a severe case of covid - 19 . v . sampson , london , uk [SEP]	serological tests	['seroepidemiology', 'serodiagnostics', 'seroconversion', 'previous infection', 'lateral flow immunoassay', 'immunoglobulins', 'immunochromatography', 'fluorescent immunoassay', 'enzyme linked immunosorbent assay', 'cross reaction', 'COVID-19 diagnosis', 'chemiluminescence immunoassay', 'antibody titer', 'antibody response']		tensor(10)	0.7046082413285737
7	how has lack of testing availability led to underreporting of true incidence of Covid-19?	Structural and Evolutionary Analysis Indicate that the SARS-CoV-2 Mpro is an Inconvenient Target for Small-Molecule Inhibitors Design	[CLS] how has lack of testing availability led to underreporting of true incidence of covid - 19 ? [SEP] mn985262 . 1 ) was obtained . blastx 49 calculations were run with the selected region , and orf1a polyprotein ( ncbi reference sequence : yp _ 009725295 . 1 ) amino acid sequence , identical with the previously downloaded covid - 19 mpro , was received . foldx software was used to insert substitutions into the structures of sars and covid - 19 mpros . in order to analyse the changes in the two structures , 12 single - point mutations were introduced to the sars structure . each of the residues in sars - cov mpro was mutated to the respective covid - 19 mpro residue , and the difference in total energies of the wild - type covid - 19 mpro and the mutant structures were calculated . then , in order to investigate further possible mutations of covid - 19 mpro , single nucleotide substitutions were introduced to the covid - 19 main protease gene . if a substitution of a single nucleotide caused translation to a different amino acid than the corresponding residue in the wild - type structure , an appropriate mutation was proposed with foldx software . sars - cov mpro was downloaded from the pdb ( pdb id : 1q2w ) . blast 50 was run based on the amino acid sequence . as a result , 2643 sequences of viral main proteases similar to chain a sars - cov mpro were obtained . clustal omega 51 was used to prepare an alignment of those sequences . comulator 29 was then employed to calculate the correlation between amino acids and based on the results , groups of positions in sars - cov mpro sequence were selected , whose amino acid occurrences strongly depended on each other . [SEP]	lack of stability and flexibility of the analysed loop	[]		tensor(887)	0.8370923261859229
8	how has COVID-19 affected Canada	Recent development of highly sensitive protease assay methods: Signal amplification through enzyme cascades	[CLS] how has covid - 19 affected canada [SEP] one solution to resolve this problem are the approaches that rely on amplifying the signal of protease activity by using enzyme cascades , and several specific strategies have been attempted so far . improved sensitivity has been demonstrated for these methods , but the optimization of these methods or development of new ones is required for application to diverse purposes . [SEP]	covid - 19 affected canada [SEP] one solution to resolve this problem are the approaches that rely on amplifying the signal of protease activity	[]		tensor(37)	0.7887159727668498
9	has social distancing had an impact on slowing the spread of COVID-19?	Simple Economical Solution for Personal Protection Equipment (Face Mask/Shield) for Health Care Staff During COVID 19	[CLS] has social distancing had an impact on slowing the spread of covid - 19 ? [SEP]ble masks , our simple and economic option for preparing our own effective barrier face masks and face shields by use of ohp transparent sheet and the routine masks will help to tide over the crises of the mask shortage as well as serve as a ppe . funding this study was not financially supported from external sourcesconflict of interest all authors declare that there is no conflict of interest . [SEP]	redistribution of manpower and resources to critically meet the current and anticipated hospital service needs	[]		tensor(1000)	0.81852985785431
10	what are the guidelines for triaging patients infected with coronavirus?	An Update on Current Therapeutic Drugs Treating COVID-19	"[CLS] what are the guidelines for triaging patients infected with coronavirus ? [SEP] formula , significantly inhibited sars - cov - 2 replication in vero e6 cells and markedly reduced pro - inflammatory cytokine ( tnf - α , il - 6 , ccl - 2 / mcp - 1 , and cxcl - 10 / ip - 10 ) production at the mrna levels [ 171 ] . sangju yin and yinqiao san are commonly used in clinical treatment to clear "" lung heat , "" expel phlegm , relieve cough , regulate the patient ' s lungs , and restore normal lung function [ 172 ] . similarly , yinqiao san may have antibacterial and antiviral functions [ 172 ] . several clinical studies showed that tcm may bring new hope for the prevention and control of covid - 19 [ 173 ] [ 174 ] [ 175 ] . in general , it appears that tcm products were commonly used in covid - 19 patients with mild symptoms to severe symptoms and could prevent or block the diseases progression . although the precise molecular mechanisms currently are unknown , the potential role of anti - inflammatory / antioxidative stress , improving hypoxemia / hypoxia and antiviral activities , among others , could be some of the major drivers . further investigations in the future are needed to uncover the molecular mechanisms . conclusion the covid - 19 pandemic represents the greatest global public health crisis in the past 100 years . hopefully vaccines and or specific therapeutic drugs targeting sars - cov - 2 will be made available in the next few months or years . with the speed and volume of basic and clinical covid - 19 / sars - cov - 2 research to develop potential drugs and therapies for this disease , our hope will be on the horizon . [SEP]"	traditional medicinal treatment	['Delayed diagnosis for those without COVID-19', 'Delayed care for those without COVID-19', 'Delayed cancer care for those without COVID-19', 'Avoid surgery', 'Quarantine', 'Outpatient', 'Observation', 'Neurooncology', 'Telehealth', 'Radiology departments', 'Point of care', 'Palliative care', 'Location', 'Frequent screening/active triage', 'Early discharge', 'Early screening and triage', 'Community setting', 'Care at home', 'Admission', 'Turning units or spaces into triage or other care areas', 'Resource-driven decisions', 'Performance score', 'Missed diagnosis of COVID-19 infections (results in delayed diagnosis, misdiagnosis, delayed treatment)', 'Econmic-driven decisions', 'Communication', 'Evidence based', 'Ethics', 'Greatest good for the greatest number', 'World Health Organization guidance', 'Triage algorithm', 'Staff safety', 'Predicted survival', 'Poor diagnostics/poor surveillance', 'Patient surge/hospitals overwhelmed', 'Nosocomial infection', 'Legal considerations', 'Interdisciplinary care', 'Critical care specialist physician', 'virus negative lymphatic myocarditis', 'heart attack during initial presentation (and has COVID-19)', 'cutaneous manifestations', 'refractory undiagnosed gastrointestinal symptoms', 'Viral infections/pneumonia', 'Tuberculosis', 'Severe pneumonia', 'Severe clinical presentation/acuity', 'Severe clinical deterioration in patients with cancer and COVID-19', 'Presymtomatic', 'Olfactory or taste disorders (OTD)', 'Number of organ failures', 'Fever', 'Fall', 'Diarrhea', 'Cough', 'Confusion', 'Co-morbidities', 'Chronic disease', 'Bacterial infections/pneumonia', 'Atypical presentation', 'Asymptomatic', 'ASA score', 'Acuity', 'Acute respiratory symptoms', 'positive tracheal aspirate test', 'RT-PCR in respiratory samples', 'Rapid IgM/IgG testing', 'Rapid host immune response', 'Radiological findings', 'Prolonged coagulation', 'Pathogen specific confirmatory tests', 'Nucleic acid test', 'Negative test', 'High MuLBSTA scores', 'Molecular confirmatory testing', 'MDR-TB and XDR-TB diagnosis', 'Lower lymphocytes count', 'nasppharyngeal swab', 'immunity testing', 'Hyponatremia', 'Hypocalcemia', 'Higher neutrophil count', 'Higher mortality risk', 'Higher liver enzyme tests', 'Higher levels of CRP', 'Handheld non contact thermometers', 'Fingerstick', 'chest X-ray', 'Abnormal density shadow in parenchyma of  both lungs', 'Highly suspect COVID in all patients', 'Pediatric patients', 'non-life threatening', 'Direct exposure', 'Co-morbidities', 'Cancer', 'Older age', 'Extracorporeal membrane oxygenation (ECMO)', 'Elderly', 'Critically ill pediatric patients', 'Aggressive measures']		tensor(845)	0.554709279098163
11	what are best practices in hospitals and at home in maintaining quarantine?	Sensitive and rapid detection of Zika virus by loop-mediated isothermal amplification	[CLS] what are best practices in hospitals and at home in maintaining quarantine ? [SEP] reagent preparation and the performance of the test to avoiding contamination . in our study , a low - melting point wax was added to the reaction tube to prevent the spread of the amplification products . it seems to work well to avoiding contamination . in conclusion , the visual lamp assay developed here for detecting zikv is more sensitive than pcr and rt - pcr and the results can be observed by naked eyes immediately when amplification is completed . for sensitive and specificity , the results of this visual method were consistent with real - time turbidimeter observations . consequently , a specific , sensitive , rapid , and cost - effective means for zikv detection with lamp method was established . it is very helpful for primary health care units to use the lamp assay to detect zikv . [SEP]	visual detection lamp assay was developed , which could be a useful tool for primary quarantine purposes and clinical screening , especially in situations where resources are poor and in point - of - care tests	[]		tensor(668)	0.8822606670631601
12	what are the transmission routes of coronavirus?	Sensitive and rapid detection of Zika virus by loop-mediated isothermal amplification	[CLS] what are the transmission routes of coronavirus ? [SEP] visual lamp assay developed here for detecting zikv is more sensitive than pcr and rt - pcr and the results can be observed by naked eyes immediately when amplification is completed . for sensitive and specificity , the results of this visual method were consistent with real - time turbidimeter observations . consequently , a specific , sensitive , rapid , and cost - effective means for zikv detection with lamp method was established . it is very helpful for primary health care units to use the lamp assay to detect zikv . [SEP]	mosquito transmission , sexual transmission , and vertical ( mother to child ) and blood transfusions	['transmission route', 'transmission by sexual contact', 'bloodborne transmission', 'transmission at superspreader events', 'pre-symptomatic transmission', 'intrafamilial transmission', 'transmission at dental practice', 'transmission by water', 'transmission at wet markets', 'transmission by horsehoe bats', 'transmission by breast milk', 'transmission by mobile phones', 'transmission by door handles', 'transmission by airborne particulate matter (PM)', 'transmission by gaseous air pollution', 'animal-human transmission', 'saliva transmission', 'ocular transmission', 'fecal-oral route', 'airborne transmission', 'transmission by air pollution', 'transmission by rats', 'transmission by bats', 'nosocomial transmission', 'indirect contact transmission', 'cross-species transmission', 'transmission by urine', 'transmission by feces', 'person-to-person transmission', 'transmission by infectious secretions', 'vertical transmission', 'transmission by excrement', 'transmission by fomites', 'close contact', 'transmission by  contact', 'transmission by respiratory droplets']		tensor(958)	0.7320712750425313
13	what evidence is there related to COVID-19 super spreaders	Simple Economical Solution for Personal Protection Equipment (Face Mask/Shield) for Health Care Staff During COVID 19	[CLS] what evidence is there related to covid - 19 super spreaders [SEP] use of ohp transparent sheet and the routine masks will help to tide over the crises of the mask shortage as well as serve as a ppe . funding this study was not financially supported from external sourcesconflict of interest all authors declare that there is no conflict of interest . [SEP]	redistribution of manpower and resources	[]		tensor(980)	0.6067502218884085
14	how long can the coronavirus live outside the body	Remdesivir for the Treatment of Covid-19 - Preliminary Report	[CLS] how long can the coronavirus live outside the body [SEP] background : although several therapeutic agents have been evaluated for the treatment of coronavirus disease 2019 ( covid - 19 ) , none have yet been shown to be efficacious . methods : we conducted a double - blind , randomized , placebo - controlled trial of intravenous remdesivir in adults hospitalized with covid - 19 with evidence of lower respiratory tract involvement . patients were randomly assigned to receive either remdesivir ( 200 mg loading dose on day 1 , followed by 100 mg daily for up to 9 additional days ) or placebo for up to 10 days . the primary outcome was the time to recovery , defined by either discharge from the hospital or hospitalization for infection - control purposes only . results : a total of 1063 patients underwent randomization . the data and safety monitoring board recommended early unblinding of the results on the basis of findings from an analysis that showed shortened time to recovery in the remdesivir group . preliminary results from the 1059 patients ( 538 assigned to remdesivir and 521 to placebo ) with data available after randomization indicated that those who received remdesivir had a median recovery time of 11 days ( 95 % confidence interval [ ci ] , 9 to 12 ) , as compared with 15 days ( 95 % ci , 13 to 19 ) in those who received placebo ( rate ratio for recovery , 1 . 32 ; 95 % ci , 1 . 12 to 1 . 55 ; p < 0 . 001 ) . the kaplan - meier estimates of mortality by 14 days were 7 . 1 % with remdesivir and 11 . 9 % with placebo ( hazard ratio for death , 0 . 70 ; 95 % ci , 0 . 47 to 1 . 04 ) . serious adverse events were reported for 114 of the 541 patients in the remdesivir group who underwent randomization ( 21 . 1 % ) and 141 of the 522 patients in the placebo group who underwent randomization ( 27 . 0 % ) . conclusions : remdesivir was superior to placebo in shortening the time to recovery in adults hospitalized with covid - 19 and evidence of lower respiratory tract infection . ( funded by the national institute of allergy and infectious diseases and others ; acct - 1 clinicaltrials . gov number , nct04280705 . ) . [SEP]	shortening the time to recovery	[]		tensor(902)	0.7383923697999091
15	how long does coronavirus remain stable  on surfaces?	Are antibodies tests accurate? Understanding predictive values and uncertainty of serology tests for the novel coronavirus.	[CLS] how long does coronavirus remain stable on surfaces ? [SEP] / 10 . 1101 / 2020 . 06 . 04 . 20122358 doi : medrxiv preprint [SEP]	long does coronavirus remain stable on surfaces ? [SEP] / 10 . 1101 / 2020 . 06 . 04 . 20122358	[]		tensor(31)	0.6873727087458147
16	are there any clinical trials available for the coronavirus	Oral hygiene risk factor	[CLS] are there any clinical trials available for the coronavirus [SEP] in patients suffering from a severe case of covid - 19 . v . sampson , london , uk [SEP]	clinical trials available for the coronavirus [SEP] in patients suffering from a severe case of covid - 19 . v . sampson	[]		tensor(35)	0.844043801430002
17	what are the best masks for preventing infection by Covid-19?	COVID‐19 pandemic: Effects and evidence‐based recommendations for otolaryngology and head and neck surgery practice	[CLS] what are the best masks for preventing infection by covid - 19 ? [SEP] , and national position statements . some represent expert opinion and application from experiences with other diseases . resources and policies may vary not only between countries , but also between hospitals . the medical community is accruing information rapidly and standards are likely to change quickly with additional results . we must learn from one another as the disease crosses the globe so as to integrate the lessons into practice before too many patients and their caregivers succumb in the pandemic . only time will reveal which approaches are most robust and generally applicable . head and neck specialists should not allow their commitment to patient care override self - preservationhealth care personnel form the most valuable resource in every country during the pandemic . there is a need for system and hospital - based decision making to support health care teams , which are composed of dedicated but vulnerable individuals . [SEP]	n - 95 or ffp2 or higher	['mask fit', 'efficacy to prevent coronavirus infection', 'respiratory protective equipment', 'disposable surgical masks', 'The valved masks', 'surgical facemasks', 'powered air-purifying respirator (PAPR)', 'FFP2 or FFP3 masks', 'high efficiency particulate air (HEPA) mask', 'cloth masks', 'N95 mask']		tensor(964)	0.6196761368618627
18	what type of hand sanitizer is needed to destroy Covid-19?	COVID-19 and Advanced Practice Registered Nurses (APRNs): Frontline update #1	"[CLS] what type of hand sanitizer is needed to destroy covid - 19 ? [SEP] clinical decision - making skills on how to operate ventilators , and even multiple ventilators , in a rapid - paced environment related to covid - 19 treatment of the patients in the icu . 49 aprns should be prepared to work in quick - acting teams , and be current in best practices of ventilator use . health care professionals are learning a great deal of strategies related to the pandemic . early testing , surveillance , targeting and quarantining of infected individuals will help in containing the spread of disease . the goals are clear : save as many lives as possible and prevent future pandemics by mobilization of resources , training , and building healthcare teams . how can we accomplish this ? aprns must use their abilities to educate populations on how to prevent the spread of infectious diseases , enhance our expertise based on evidence - based practice guidelines , restructure public health , establish new health care policies and procedures , and engage stakeholders in prevention of further pandemics . in light of the impact this pandemic has had globally , aprns on the frontline are best advised to remain current with evidence based practice protocols , testing indications and procedures , current treatments and treatment challenges , updates to patient education guidelines to promote prevention , protecting vulnerable populations , and promoting mental health . our world and aprn practice has forever changed . adapting to this "" new normal "" will continue to present challenges we must continue to overcome together . [SEP]"	wash hands often with soap and water	[]		tensor(1009)	0.7815188007244618
19	are patients taking Angiotensin-converting enzyme inhibitors (ACE) at increased risk for COVID-19?	The time for universal masking of the public for coronavirus disease 2019 is now	[CLS] are patients taking angiotensin - converting enzyme inhibitors ( ace ) at increased risk for covid - 19 ? [SEP] . [SEP]	increased risk for covid - 19	['Modulate the ACE2', 'Standard therapy', 'Upregulating ACE2', 'Do not withdraw', 'Facilitating interaction and penetration', 'Counteract the effects of ACE', 'Protects against lung injury', 'Not associated with increased SARS-CoV-2', 'Should not stop prophylactically', 'Increase regulation of ACE2', 'Deleterious effects on morbidity and mortality', 'Worse prognosis', 'More prone', 'Not well studied', 'Increasing the risk', 'Entry of SARS-CoV-2 into the lung', 'ACE shows homology', 'Alternatives', 'ACE2 recognized as the target', 'Increase the cellular expression', 'Combination', 'Monotherapy', 'No significant increase', 'May increase', 'ACE2 receptor']		tensor(41)	0.7507057219261666
20	what are the mortality rates overall and in specific populations	SARS-CoV-2 Vaccines: Status Report	[CLS] what are the mortality rates overall and in specific populations [SEP] trial design . for sars - cov - 2 , vaccines might come too late to affect the first wave of this pandemic . however , they might be useful if additional waves occur later or in a post - pandemic scenario in which sars - cov - 2 continues to circulate as a seasonal virus . in addition , lessons learned from handling this outbreak will allow us to be better prepared in the future . the viruses will keep coming . we thank francesco berlanda - scorza for providing feedback on this manuscript . work on influenza virus vaccines and immunity in the krammer laboratory is supported by the national institute of allergy and infectious diseases ( niaid ) collaborative influenza vaccine innovation centers ( civic ) contract 75n93019c00051 , niaid centers of excellence for influenza research and surveillance ( ceirs ) contract hhsn272201400008c , and niaid grants ai117287 and ai128821 , as well as funding from the u . s . department of defense and the bill and melinda gates foundation . work on sars - cov - 2 reagents is supported by ceirs and institutional seed funding ; reagents are being deposited into bei resources to support sars - cov - 2 research and countermeasure development . [SEP]	morbidity and mortality if the virus establishes itself in the population	['elderly', 'aging', 'shortage of ventilators', 'shortages of ICU beds', 'higher mortality', 'raca specific', 'age-specific', 'sex-specific', 'Colder countries', 'sex and age categories', 'fatality ratio', 'latent mortality', 'case fatality risk', 'population-level mortality', 'number of deaths', 'mortality schedule to populations with different age and sex structures', 'growing number of series on COVID-19 deaths', 'in-hospital mortality', 'cumulative number of deaths', 'fatal outcomes', 'elderly longevity', 'mortality selection', 'deaths over population', 'deaths over observed infections', 'case-fatality rates', 'death rates', 'mortality risk', 'higher mortality', 'highest mortality', 'all-cause mortality', 'cohort mortality', 'high-mortality', 'low-mortality', 'heavy loses', 'many death', 'COVID-19 motality', 'IFR', 'infection fatality rate']		tensor(306)	0.8954143533236102
21	are cardiac complications likely in patients with COVID-19?	Rampant C->U hypermutation in the genomes of SARS-CoV-2 and other coronaviruses – causes and consequences for their short and long evolutionary trajectories	[CLS] are cardiac complications likely in patients with covid - 19 ? [SEP] and sars - cov 280 genomes in humans may therefore represent the initial effects of replication in a more hostile internal cellular environment than to be found in a better co - oadapted , virus - tolerised immune system of a bat ( 34 ) . zoonotic origins are suspected for other human coronaviruses but at more remote times ( 35 ) ; perhaps they have taken their mutational and adaptive journeys already . coronaviruses and relatives infecting other species ( blue circles ) and a collection of bat sars - like viruses ( grey circle ) . a power law line of best fit showed a significant correlation between divergence and dn / ds ratio ( p = 0 . 000006 ) . relationship between g + c content and frequencies of individual bases in coronaviruses . the associations between c depletion and u enrichment with g + c content were both significant by 585 linear regression at p = 5 x 10 - 7 and p = 5 x 10 - 6 respectively . no significant associations were observed between g + c content and g ( p = 0 . 05 ) or a ( p = 0 . 62 ) frequencies . arrows are colour coded as for fig . 1 . [SEP]	acute respiratory distress syndrome and death	['cardiotoxic drugs', 'ACE inhibitors', 'angiotensin receptor blockers', 'incidence data', 'mortality data', 'elderly', 'myocardial damage mechanisms', 'ACE2', 'cardiac biomarker elevation', 'cardiac disease as a complication', 'exacerbation of cardiac disease']		tensor(988)	0.7725625327774505
22	what kinds of complications related to COVID-19 are associated with hypertension?	Rampant C->U hypermutation in the genomes of SARS-CoV-2 and other coronaviruses – causes and consequences for their short and long evolutionary trajectories	[CLS] what kinds of complications related to covid - 19 are associated with hypertension ? [SEP] and the consequent variability in apobec nucleic acid targeting ( 20 ) may indeed create distinct selection pressures on coronaviruses in different hosts . the immediate appearance of c - > u hypermutation in sars - cov - 2 and sars - cov 280 genomes in humans may therefore represent the initial effects of replication in a more hostile internal cellular environment than to be found in a better co - oadapted , virus - tolerised immune system of a bat ( 34 ) . zoonotic origins are suspected for other human coronaviruses but at more remote times ( 35 ) ; perhaps they have taken their mutational and adaptive journeys already . coronaviruses and relatives infecting other species ( blue circles ) and a collection of bat sars - like viruses ( grey circle ) . a power law line of best fit showed a significant correlation between divergence and dn / ds ratio ( p = 0 . 000006 ) . relationship between g + c content and frequencies of individual bases in coronaviruses . the associations between c depletion and u enrichment with g + c content were both significant by 585 linear regression at p = 5 x 10 - 7 and p = 5 x 10 - 6 respectively . no significant associations were observed between g + c content and g ( p = 0 . 05 ) or a ( p = 0 . 62 ) frequencies . arrows are colour coded as for fig . 1 . [SEP]	acute respiratory distress syndrome and death	['Comorbidites', 'Acute cardiac injury', 'Chronic Medical conditions', 'Hypertension Treatment', 'Increased Risk', 'hypertensive disorders of pregnancy']		tensor(1000)	0.7092683583199466
23	what kinds of complications related to COVID-19 are associated with diabetes	The impact of goggle-associated harms to health and working status of nurses during management of COVID-19	[CLS] what kinds of complications related to covid - 19 are associated with diabetes [SEP] % ) 0 ( 0 % ) 0 ( 0 % ) na initial symptoms ( % ) all rights reserved . no reuse allowed without permission . ( which was not certified by peer review ) is the author / funder , who has granted medrxiv a license to display the preprint in perpetuity . [SEP]	risk factors for medical errors	[]		tensor(1007)	0.8345002566515848
24	which biomarkers predict the severe clinical course of 2019-nCOV infection?	An Update on Current Therapeutic Drugs Treating COVID-19	"[CLS] which biomarkers predict the severe clinical course of 2019 - ncov infection ? [SEP] this herbal formula increases immunity and reduces inflammation by targeting the lung and spleen in covid - 19 patients [ 170 ] . li et al . reported that lianhuaqingwen ( lh ) , a tcm formula , significantly inhibited sars - cov - 2 replication in vero e6 cells and markedly reduced pro - inflammatory cytokine ( tnf - α , il - 6 , ccl - 2 / mcp - 1 , and cxcl - 10 / ip - 10 ) production at the mrna levels [ 171 ] . sangju yin and yinqiao san are commonly used in clinical treatment to clear "" lung heat , "" expel phlegm , relieve cough , regulate the patient ' s lungs , and restore normal lung function [ 172 ] . similarly , yinqiao san may have antibacterial and antiviral functions [ 172 ] . several clinical studies showed that tcm may bring new hope for the prevention and control of covid - 19 [ 173 ] [ 174 ] [ 175 ] . in general , it appears that tcm products were commonly used in covid - 19 patients with mild symptoms to severe symptoms and could prevent or block the diseases progression . although the precise molecular mechanisms currently are unknown , the potential role of anti - inflammatory / antioxidative stress , improving hypoxemia / hypoxia and antiviral activities , among others , could be some of the major drivers . further investigations in the future are needed to uncover the molecular mechanisms . conclusion the covid - 19 pandemic represents the greatest global public health crisis in the past 100 years . hopefully vaccines and or specific therapeutic drugs targeting sars - cov - 2 will be made available in the next few months or years . with the speed and volume of basic and clinical covid - 19 / sars - cov - 2 research to develop potential drugs and therapies for this disease , our hope will be on the horizon . [SEP]"	viral rna concentration , 10 cytokines / chemokines and pro - inflammatory mediators	['LDH', 'fibrinogen', 'Alanine aminotransferase', 'd-dimer', 'ferritin', 'ApoA1', 'high-density lipoprotein cholesterol', 'total protein', 'angiotensin II', 'albumin', 'myoglobin', 'creatine kinase', 'troponins', 'cytokines', 'procalcitonin', 'oxygen', 'ACE', 'C-reactive protein', 'lactate dehydrogenase', 'Blood cell count']		tensor(205)	0.6143320682139303
25	what are the initial symptoms of Covid-19?	An Update on Current Therapeutic Drugs Treating COVID-19	"[CLS] what are the initial symptoms of covid - 19 ? [SEP] lung heat , "" expel phlegm , relieve cough , regulate the patient ' s lungs , and restore normal lung function [ 172 ] . similarly , yinqiao san may have antibacterial and antiviral functions [ 172 ] . several clinical studies showed that tcm may bring new hope for the prevention and control of covid - 19 [ 173 ] [ 174 ] [ 175 ] . in general , it appears that tcm products were commonly used in covid - 19 patients with mild symptoms to severe symptoms and could prevent or block the diseases progression . although the precise molecular mechanisms currently are unknown , the potential role of anti - inflammatory / antioxidative stress , improving hypoxemia / hypoxia and antiviral activities , among others , could be some of the major drivers . further investigations in the future are needed to uncover the molecular mechanisms . conclusion the covid - 19 pandemic represents the greatest global public health crisis in the past 100 years . hopefully vaccines and or specific therapeutic drugs targeting sars - cov - 2 will be made available in the next few months or years . with the speed and volume of basic and clinical covid - 19 / sars - cov - 2 research to develop potential drugs and therapies for this disease , our hope will be on the horizon . [SEP]"	fever , cough , tightness of breath , and chest pain	['dizziness', 'loss of appetite', 'rhabdomyolysis', 'malaise', 'naussea', 'pseudomembranous conjunctivitis', 'sneezing', 'altered mental status', 'sore throat', 'chemosensitive disorders', 'ataxia', 'ageusia', 'anosmia', 'vomiting', 'hemoptysis', 'diarrhea', 'dysguesia', 'dysosmia', 'tiredness', 'myalgias', 'dysapnea', 'headache', 'cough', 'fever']		tensor(1002)	0.6771742197458267
26	what is known about those infected with Covid-19 but are asymptomatic?	The time for universal masking of the public for coronavirus disease 2019 is now	"[CLS] what is known about those infected with covid - 19 but are asymptomatic ? [SEP] . industries in the united states can repurpose to produce surgical masks in vast quantities for the public [ 48 ] ( as in taiwan ) [ 45 ] , and such production will allow equal access to mask supplies across all strata of society . the cdc has provided guidance on which cloth materials are the most effective for preventing the spread of respiratory droplets [ 12 , 49 ] , although ensuring that equality to access is imperative and recommendations on how to prolong the life of disposable masks and reuse masks are widespread [ 50 ] . another major concern is that the public will let their "" guard down "" with masking [ 2 ] . this can be addressed with strong public health messaging performed in tandem with new policy . the effects of the "" lockdown "" and shelterin - place guidelines for most of the united states on the economy have been devastating . taiwan , with the most consistent supply of surgical isolation masks for its people ( including medical , public and industrial sectors ) , and with stringent social distancing guidelines and other public health measures , has maintained control of its epidemic without mandating work and school closure . when social distancing is not possible , the taiwanese centers for disease control has mandated that members of the public wear face masks , including on public transportation where fines may be incurred for noncompliance . the country of taiwan remains one of the most controlled in terms of the covid - 19 epidemic to date , with 388 cases and 6 deaths as of april 12 , 2020 [ 51 ] . an eventual and cautious recommendation for a return to work in the united states , with public masks for crowded indoor or outdoor spaces as one component of the updated guidelines , could provide much - needed relief for the economy . tips for how children can be encouraged to wear face masks are already emerging [ 52 ] . in conclusion , we strongly endorse universal public masking in the united states for crowded indoor or public spaces , including supermarkets , public gatherings , and in close workplaces . this recommendation does not replace our populationlevel , public health approaches , including social distancing in the short term , but it does serve as an adjunct , with the hope that we will be able to relax such measures as transmission slows . [SEP]"	increasing evidence of viral shedding of sars - cov - 2 from asymptomatic and presymptomatic individuals	[]		tensor(607)	0.7831121788985582
27	what evidence is there for the value of hydroxychloroquine in treating Covid-19?	An Update on Current Therapeutic Drugs Treating COVID-19	[CLS] what evidence is there for the value of hydroxychloroquine in treating covid - 19 ? [SEP] crisis in the past 100 years . hopefully vaccines and or specific therapeutic drugs targeting sars - cov - 2 will be made available in the next few months or years . with the speed and volume of basic and clinical covid - 19 / sars - cov - 2 research to develop potential drugs and therapies for this disease , our hope will be on the horizon . [SEP]	lack of evidence	[]		tensor(999)	0.8173152789869904
28	which SARS-CoV-2 proteins-human proteins interactions indicate potential for drug targets. Are there approved drugs that can be repurposed based on this information?	An Update on Current Therapeutic Drugs Treating COVID-19	"[CLS] which sars - cov - 2 proteins - human proteins interactions indicate potential for drug targets . are there approved drugs that can be repurposed based on this information ? [SEP] cells and markedly reduced pro - inflammatory cytokine ( tnf - α , il - 6 , ccl - 2 / mcp - 1 , and cxcl - 10 / ip - 10 ) production at the mrna levels [ 171 ] . sangju yin and yinqiao san are commonly used in clinical treatment to clear "" lung heat , "" expel phlegm , relieve cough , regulate the patient ' s lungs , and restore normal lung function [ 172 ] . similarly , yinqiao san may have antibacterial and antiviral functions [ 172 ] . several clinical studies showed that tcm may bring new hope for the prevention and control of covid - 19 [ 173 ] [ 174 ] [ 175 ] . in general , it appears that tcm products were commonly used in covid - 19 patients with mild symptoms to severe symptoms and could prevent or block the diseases progression . although the precise molecular mechanisms currently are unknown , the potential role of anti - inflammatory / antioxidative stress , improving hypoxemia / hypoxia and antiviral activities , among others , could be some of the major drivers . further investigations in the future are needed to uncover the molecular mechanisms . conclusion the covid - 19 pandemic represents the greatest global public health crisis in the past 100 years . hopefully vaccines and or specific therapeutic drugs targeting sars - cov - 2 will be made available in the next few months or years . with the speed and volume of basic and clinical covid - 19 / sars - cov - 2 research to develop potential drugs and therapies for this disease , our hope will be on the horizon . [SEP]"	cytokine storm and thrombosis	['efavirenz', 'atazanavir', 'lopinavir', 'sunitinib', 'pazopanib', 'dasatinib', 'axitinib', 'bictegravir', 'dolutegravir', 'raltegravir', 'maraviroc (MVC)', 'glecaprevir', 'darunavir', 'isoacteoside', 'cannabisin A', 'mefloquine', 'selamectin', 'nicotinamide', 'vitamin B12', 'telbivudine', 'ribavirin', 'Coenzyme A', 'Flavin Adenine Dinucleotide (FAD) Adeflavin', 'Saquinavir', 'Zanamivir', 'CGP-60474', 'COL-3', 'artenimol', 'quercetin', 'proline', 'vicriviroc', 'maraviroc', 'ketoprofen', 'framycetin', 'ruplizumab', 'N-formylmethionine', 'myricetin', 'abacavir', 'cefazolin', 'ibalizumab', 'olsalazine', 'siltuximab', 'golimumab', 'afelimomab', 'pranlukast', 'clenbuterol', 'thalidomide', 'epinephrine', 'infliximab', 'adalimumab', 'etanercept', 'tapinarof', 'YSIL6', 'atiprimod', 'andrographolide', 'pseudoephedrine', 'grazoprevir', 'elbasvir', 'Kaletra', 'heparin (HP)', '3C-like protease (3CL pro) domain', 'papain-like protease (PL pro ) domain', 'cathepsin L', 'TPC2', 'PIKfyve', 'angiotensin converting enzyme 2 (hACE2)', 'toll-like receptor 4 (TLR4)', 'spike glycoprotein SARS-CoV-2', 'limonin', 'meplazumab', 'metuzumab', 'metuximab', 'CD147-antagonistic peptide (AP)-9', 'cefuroxime', 'paritaprevir', 'CGP42112A', 'methisazone', 'remdesivir', 'ritonavir', 'indinavir', 'asunaprevir', 'lopinavir', 'hydroxychloroquine', 'chloroquine', 'mefloquine hydrochloride', 'selamectin', 'cepharanthine (CEP)', 'spike protein of pangolin coronavirus GX_P2V', 'SARS-CoV-2-S1', 'ibuprofen', 'hydroxychloroquine-SARS-CoV-2 helicase', 'favipiravir-SARS-CoV-2 helicase', 'SARS-CoV-2 helicase', 'SARS-CoV-2-S RBD and DPP4']		tensor(384)	0.5199474962851213
29	is remdesivir an effective treatment for COVID-19	An Update on Current Therapeutic Drugs Treating COVID-19	"[CLS] is remdesivir an effective treatment for covid - 19 [SEP] pro - inflammatory cytokine ( tnf - α , il - 6 , ccl - 2 / mcp - 1 , and cxcl - 10 / ip - 10 ) production at the mrna levels [ 171 ] . sangju yin and yinqiao san are commonly used in clinical treatment to clear "" lung heat , "" expel phlegm , relieve cough , regulate the patient ' s lungs , and restore normal lung function [ 172 ] . similarly , yinqiao san may have antibacterial and antiviral functions [ 172 ] . several clinical studies showed that tcm may bring new hope for the prevention and control of covid - 19 [ 173 ] [ 174 ] [ 175 ] . in general , it appears that tcm products were commonly used in covid - 19 patients with mild symptoms to severe symptoms and could prevent or block the diseases progression . although the precise molecular mechanisms currently are unknown , the potential role of anti - inflammatory / antioxidative stress , improving hypoxemia / hypoxia and antiviral activities , among others , could be some of the major drivers . further investigations in the future are needed to uncover the molecular mechanisms . conclusion the covid - 19 pandemic represents the greatest global public health crisis in the past 100 years . hopefully vaccines and or specific therapeutic drugs targeting sars - cov - 2 will be made available in the next few months or years . with the speed and volume of basic and clinical covid - 19 / sars - cov - 2 research to develop potential drugs and therapies for this disease , our hope will be on the horizon . [SEP]"	antiviral agents	['GS-443902', 'papain like protease', 'exonuclease', 'drug therapy', 'genome replication', 'viral load', 'coronavirus main proteinase', 'evades proofreading by viral exonuclease', 'obscures viral rna polymerase', 'invasive mechanical ventilation', 'respiratory insufficiency', 'adverse effect', 'pneumonia', 'leangth of stay', 'mortality', 'clinical trial', 'GS-441524', 'monophosphoramidate', 'mRNA RdRp', 'disease progression', 'inhibits viral replication', 'preclinical', 'nucleotide analog prodrug', 'approved', 'investigational', 'efficacy', 'reduce virulence', 'treatment outcome', 'antiviral', 'remdesivir']		tensor(380)	0.4286475310525961
30	How does the coronavirus differ from seasonal flu?	Structural and Evolutionary Analysis Indicate that the SARS-CoV-2 Mpro is an Inconvenient Target for Small-Molecule Inhibitors Design	[CLS] how does the coronavirus differ from seasonal flu ? [SEP] wild - type covid - 19 mpro and the mutant structures were calculated . then , in order to investigate further possible mutations of covid - 19 mpro , single nucleotide substitutions were introduced to the covid - 19 main protease gene . if a substitution of a single nucleotide caused translation to a different amino acid than the corresponding residue in the wild - type structure , an appropriate mutation was proposed with foldx software . sars - cov mpro was downloaded from the pdb ( pdb id : 1q2w ) . blast 50 was run based on the amino acid sequence . as a result , 2643 sequences of viral main proteases similar to chain a sars - cov mpro were obtained . clustal omega 51 was used to prepare an alignment of those sequences . comulator 29 was then employed to calculate the correlation between amino acids and based on the results , groups of positions in sars - cov mpro sequence were selected , whose amino acid occurrences strongly depended on each other . [SEP]	only the heating stage	[]		tensor(808)	0.6234592685512638
31	Does SARS-CoV-2 have any subtypes, and if so what are they?	An Update on Current Therapeutic Drugs Treating COVID-19	[CLS] does sars - cov - 2 have any subtypes , and if so what are they ? [SEP]rs - cov - 2 research to develop potential drugs and therapies for this disease , our hope will be on the horizon . [SEP]	beta sub - grouping	[]		tensor(1006)	0.4836814816604425
32	What vaccine candidates are being tested for Covid-19?	Rampant C->U hypermutation in the genomes of SARS-CoV-2 and other coronaviruses – causes and consequences for their short and long evolutionary trajectories	[CLS] what vaccine candidates are being tested for covid - 19 ? [SEP] and sars - cov 280 genomes in humans may therefore represent the initial effects of replication in a more hostile internal cellular environment than to be found in a better co - oadapted , virus - tolerised immune system of a bat ( 34 ) . zoonotic origins are suspected for other human coronaviruses but at more remote times ( 35 ) ; perhaps they have taken their mutational and adaptive journeys already . coronaviruses and relatives infecting other species ( blue circles ) and a collection of bat sars - like viruses ( grey circle ) . a power law line of best fit showed a significant correlation between divergence and dn / ds ratio ( p = 0 . 000006 ) . relationship between g + c content and frequencies of individual bases in coronaviruses . the associations between c depletion and u enrichment with g + c content were both significant by 585 linear regression at p = 5 x 10 - 7 and p = 5 x 10 - 6 respectively . no significant associations were observed between g + c content and g ( p = 0 . 05 ) or a ( p = 0 . 62 ) frequencies . arrows are colour coded as for fig . 1 . [SEP]	1 - 4	[]		tensor(1011)	0.25473559546132235
33	What are the longer-term complications of those who recover from COVID-19?	Rampant C->U hypermutation in the genomes of SARS-CoV-2 and other coronaviruses – causes and consequences for their short and long evolutionary trajectories	[CLS] what are the longer - term complications of those who recover from covid - 19 ? [SEP]pobec nucleic acid targeting ( 20 ) may indeed create distinct selection pressures on coronaviruses in different hosts . the immediate appearance of c - > u hypermutation in sars - cov - 2 and sars - cov 280 genomes in humans may therefore represent the initial effects of replication in a more hostile internal cellular environment than to be found in a better co - oadapted , virus - tolerised immune system of a bat ( 34 ) . zoonotic origins are suspected for other human coronaviruses but at more remote times ( 35 ) ; perhaps they have taken their mutational and adaptive journeys already . coronaviruses and relatives infecting other species ( blue circles ) and a collection of bat sars - like viruses ( grey circle ) . a power law line of best fit showed a significant correlation between divergence and dn / ds ratio ( p = 0 . 000006 ) . relationship between g + c content and frequencies of individual bases in coronaviruses . the associations between c depletion and u enrichment with g + c content were both significant by 585 linear regression at p = 5 x 10 - 7 and p = 5 x 10 - 6 respectively . no significant associations were observed between g + c content and g ( p = 0 . 05 ) or a ( p = 0 . 62 ) frequencies . arrows are colour coded as for fig . 1 . [SEP]	acute respiratory distress syndrome and death	['metabolic complications/disease', 'kidney pathology/disease', 'psychologic and psychiatric disorders', 'fatigue', 'cognition disorders', 'immunologic pathology/disease', 'brain and neurologic pathology/disease', 'heart pathology/disease', 'lung pathology/disease']		tensor(998)	0.5997742824417748
34	What new public datasets are available related to COVID-19?	The effect of a national lockdown in response to COVID-19 pandemic on the prevalence of clinical symptoms in the population	[CLS] what new public datasets are available related to covid - 19 ? [SEP] lockdown policy on the prevalence of several clinical symptoms , which are related to both . cc - by - nc 4 . 0 international license it is made available under a is the author / funder , who has granted medrxiv a license to display the preprint in perpetuity . ( which was not certified by peer review ) the copyright holder for this preprint this version posted may 1 , 2020 . . https : / / doi . org / 10 . 1101 / 2020 . 04 . 27 . 20076000 doi : medrxiv preprintthe prevalence of different symptoms which were used to define symptoms ratio in children ( src ) based on a recent systematic review ( 13 ) . dashed vertical lines mark dates with covid - 19 national related events , that can be found in table 2 . . cc - by - nc 4 . 0 international license it is made available under a is the author / funder , who has granted medrxiv a license to display the preprint in perpetuity . ( which was not certified by peer review ) the copyright holder for this preprint this version posted may 1 , 2020 . . cc - by - nc 4 . 0 international license it is made available under a is the author / funder , who has granted medrxiv a license to display the preprint in perpetuity . ( which was not certified by peer review ) the copyright holder for this preprint this version posted may 1 , 2020 . . https : / / doi . org / 10 . 1101 / 2020 . 04 . 27 . 20076000 doi : medrxiv preprint [SEP]	nationwide , daily , one minute surveys	[]		tensor(803)	0.6691069299480572
35	What is the protein structure of the SARS-CoV-2 spike?	An Update on Current Therapeutic Drugs Treating COVID-19	"[CLS] what is the protein structure of the sars - cov - 2 spike ? [SEP] 170 ] . li et al . reported that lianhuaqingwen ( lh ) , a tcm formula , significantly inhibited sars - cov - 2 replication in vero e6 cells and markedly reduced pro - inflammatory cytokine ( tnf - α , il - 6 , ccl - 2 / mcp - 1 , and cxcl - 10 / ip - 10 ) production at the mrna levels [ 171 ] . sangju yin and yinqiao san are commonly used in clinical treatment to clear "" lung heat , "" expel phlegm , relieve cough , regulate the patient ' s lungs , and restore normal lung function [ 172 ] . similarly , yinqiao san may have antibacterial and antiviral functions [ 172 ] . several clinical studies showed that tcm may bring new hope for the prevention and control of covid - 19 [ 173 ] [ 174 ] [ 175 ] . in general , it appears that tcm products were commonly used in covid - 19 patients with mild symptoms to severe symptoms and could prevent or block the diseases progression . although the precise molecular mechanisms currently are unknown , the potential role of anti - inflammatory / antioxidative stress , improving hypoxemia / hypoxia and antiviral activities , among others , could be some of the major drivers . further investigations in the future are needed to uncover the molecular mechanisms . conclusion the covid - 19 pandemic represents the greatest global public health crisis in the past 100 years . hopefully vaccines and or specific therapeutic drugs targeting sars - cov - 2 will be made available in the next few months or years . with the speed and volume of basic and clinical covid - 19 / sars - cov - 2 research to develop potential drugs and therapies for this disease , our hope will be on the horizon . [SEP]"	crown - like spikes on their surface and there are four main sub - groupings of coronaviruses , known as alpha , beta , gamma , and delta [ 1 , 2 ] . sars - cov - 2 belongs to the beta sub - grouping	['ectodomain', 't cell epitopes', 'important B', 'N-terminal domain', 'epitopes', '1.54 Å', 'S ectodomain', 'S1/ S2', 'primary sequence', 'multimeric conformation', '100 Å', 'trimer on the virion surface', 'furin cleavage site', 'more than 90% amino acid similarity', 'a transmembrane domain', 'a fusion domain', 'receptor-binding domain', 'S1 and S2 subunits', 'an intracellular domain', 'an intermembrane domain', '180 kDa homotrimer consisting of an extracellular domain']		tensor(948)	0.7864608438412556
36	What is the result of phylogenetic analysis of SARS-CoV-2 genome sequence?	Epidemiological and clinical features of 200 hospitalized patients with Corona Virus Disease 2019 outside Wuhan, China: A descriptive study	[CLS] what is the result of phylogenetic analysis of sars - cov - 2 genome sequence ? [SEP] - 19 admitted in a designated hospital in yichang , hubei province , china . we hope our findings can provide some references for understanding j o u r n a l p r e - p r o o f 6 the epidemic and the clinical characteristics of this novel coronavirus outside wuhan . the epidemiological , clinical , laboratory , treatment , and outcome data of the patients were obtained from electronic medical records . all the data were reviewed by two we described and summarized demographic data , family clustering , exposure history , potential comorbidities , clinical manifestations , laboratory tests , chest ct scans , treatment measures , and prognosis . all statistical analyses were performed using spss20 . 0 version software . continuous variables were represented as mean , median , and interquartile range ( iqr ) values . independent group t - test was used to compare the means of continuous variables when the data were normally distributed . categorical variables were represented as frequency and percentage . the mann - whitney test was used when the data were non - normally distributed . chi - square test was used to compare proportions of categorical variables , although fisher ' s exact test was used in cases where data was limited . a two - sided α of less than 0 · 05 was considered statistically significant . a total of 200 patients with laboratory - confirmed covid - 19 were enrolled in the study . ( table 1 ) . according to chest ct on admission , 176 ( 86 % ) patients had bilateral involvement ( table 2 ) . many of the patients presented with complications , including 32 ( 16 % ) with acute respiratory distress syndrome ( ards ) , 10 ( % ) with acute cardiac injury , 24 ( 12 % ) with acute renal injury , 12 ( 6 . 0 % ) with secondary infection , and 4 ( 2 % ) with shock ( table 3 ) . and it was found that the complications were more common in the icu patients herein , we reported a total of 200 patients with confirmed covid - 19 [SEP]	the sequence of rna genome of the virus is similar to bat coronaviruses , indicating the bats maybe the primary source 7	['adaptive evolution', 'positive selection', 'S gene recombination', 'origin and proximity', 'Bat coronavirus (BM48-31, Hp-betacoronavirus)', 'BatCoV RaTG13 sequence', 'Sarbecovirus subgenus', 'emerging heterogeneity', 'sequence identity', 'bat origin', 'independent introductions', 'diversification of strains', 'mean rate of evolution', 'time of the most recent common ancestor', 'recombination', 'bat coronavirus RaTG13', 'Sarbecovirus', 'genome similarity', 'monophyletic subclade', 'S Clade', 'G clade', 'SARS-COV', 'BatCoV RaTG13', 'Bat-SL-CoV', 'independent  introductions', 'Bat/Yunnan/RaTG13', 'monophyletic group', 'evolutionary relationship', 'mean rate of evolution', 'time of the most recent common ancestor', 'genetic lineage', 'diversification', 'ancestral type', 'central variants', 'paraphyletic relation', 'monophyletic clade', 'relationship of isolates', 'evolutionary rate', 'phylogenetic clusters', 'genetic diversity', 'virus origin', 'infection paths', 'closest relatives', 'immediate ancestor', 'SARS-COV-2 clade', 'Betacoronavirus', 'evolutionary history', 'phylogenetic relationship', 'AA changes', 'long-distance dispersal', 'spatial phylogenetic structure', 'synonymous substitution', 'Clades', 'lineage-defining SNPs', 'homoplasies', 'similarity to SARS-COV', 'intra-and inter-clade variability', 'Clades', 'homology at genome level', 'sequence similarity', 'bat coronaviruses', 'RNA genome Sequence', 'lineage B betacoronaviruses']		tensor(356)	0.8743975324121324
37	What is the mechanism of inflammatory response and pathogenesis of COVID-19 cases?	An Update on Current Therapeutic Drugs Treating COVID-19	"[CLS] what is the mechanism of inflammatory response and pathogenesis of covid - 19 cases ? [SEP]i paidu decoction was recommended by both chinese and korean guidelines . according to a recent publication , this herbal formula increases immunity and reduces inflammation by targeting the lung and spleen in covid - 19 patients [ 170 ] . li et al . reported that lianhuaqingwen ( lh ) , a tcm formula , significantly inhibited sars - cov - 2 replication in vero e6 cells and markedly reduced pro - inflammatory cytokine ( tnf - α , il - 6 , ccl - 2 / mcp - 1 , and cxcl - 10 / ip - 10 ) production at the mrna levels [ 171 ] . sangju yin and yinqiao san are commonly used in clinical treatment to clear "" lung heat , "" expel phlegm , relieve cough , regulate the patient ' s lungs , and restore normal lung function [ 172 ] . similarly , yinqiao san may have antibacterial and antiviral functions [ 172 ] . several clinical studies showed that tcm may bring new hope for the prevention and control of covid - 19 [ 173 ] [ 174 ] [ 175 ] . in general , it appears that tcm products were commonly used in covid - 19 patients with mild symptoms to severe symptoms and could prevent or block the diseases progression . although the precise molecular mechanisms currently are unknown , the potential role of anti - inflammatory / antioxidative stress , improving hypoxemia / hypoxia and antiviral activities , among others , could be some of the major drivers . further investigations in the future are needed to uncover the molecular mechanisms . conclusion the covid - 19 pandemic represents the greatest global public health crisis in the past 100 years . hopefully vaccines and or specific therapeutic drugs targeting sars - cov - 2 will be made available in the next few months or years . with the speed and volume of basic and clinical covid - 19 / sars - cov - 2 research to develop potential drugs and therapies for this disease , our hope will be on the horizon . [SEP]"	binding of the transfused antibodies to the pathogen , resulting in cellular cytotoxicity , phagocytosis , or direct neutralization of the pathogen	[]		tensor(964)	0.8087853251905774
38	What is the mechanism of cytokine storm syndrome on the COVID-19?	An Update on Current Therapeutic Drugs Treating COVID-19	"[CLS] what is the mechanism of cytokine storm syndrome on the covid - 19 ? [SEP]i paidu decoction was recommended by both chinese and korean guidelines . according to a recent publication , this herbal formula increases immunity and reduces inflammation by targeting the lung and spleen in covid - 19 patients [ 170 ] . li et al . reported that lianhuaqingwen ( lh ) , a tcm formula , significantly inhibited sars - cov - 2 replication in vero e6 cells and markedly reduced pro - inflammatory cytokine ( tnf - α , il - 6 , ccl - 2 / mcp - 1 , and cxcl - 10 / ip - 10 ) production at the mrna levels [ 171 ] . sangju yin and yinqiao san are commonly used in clinical treatment to clear "" lung heat , "" expel phlegm , relieve cough , regulate the patient ' s lungs , and restore normal lung function [ 172 ] . similarly , yinqiao san may have antibacterial and antiviral functions [ 172 ] . several clinical studies showed that tcm may bring new hope for the prevention and control of covid - 19 [ 173 ] [ 174 ] [ 175 ] . in general , it appears that tcm products were commonly used in covid - 19 patients with mild symptoms to severe symptoms and could prevent or block the diseases progression . although the precise molecular mechanisms currently are unknown , the potential role of anti - inflammatory / antioxidative stress , improving hypoxemia / hypoxia and antiviral activities , among others , could be some of the major drivers . further investigations in the future are needed to uncover the molecular mechanisms . conclusion the covid - 19 pandemic represents the greatest global public health crisis in the past 100 years . hopefully vaccines and or specific therapeutic drugs targeting sars - cov - 2 will be made available in the next few months or years . with the speed and volume of basic and clinical covid - 19 / sars - cov - 2 research to develop potential drugs and therapies for this disease , our hope will be on the horizon . [SEP]"	binding of the transfused antibodies to the pathogen , resulting in cellular cytotoxicity , phagocytosis , or direct neutralization of the pathogen	[]		tensor(964)	0.7601796887840555
39	What are the observed mutations in the SARS-CoV-2 genome and how often do the mutations occur?	Characterization of eight novel full-length genomes of SARS-CoV-2 among imported COVID-19 cases from abroad in Yunnan, China	[CLS] what are the observed mutations in the sars - cov - 2 genome and how often do the mutations occur ? [SEP] sars - cov - 2 clade was g ( 6 cases ) , followed by s clade ( one case ) and unclassified clade ( one case ) . further , comparative genomic analyses revealed that a novel signature amino acid substitution p4715l in nsp12 was found in the g clade strains . moreover , three novel mutations , including d1962v in nsp3 , l1375f in nsp3 , and a829t in s protein were first identified in this study . the present study highlights the urgent need for continuous molecular screening and epidemic surveillance for sars - cov - 2 among covid - 19 individuals imported from abroad to prevent future outbreaks of sars - cov - 2 infection in china . the authors declare no competing financial interests . [SEP]	three novel mutations	['insertion mutations', 'deletion  mutations', 'fatality outcome', 'RdRp gene', 'genomic surveillance', 'SNP genotyping', 'spike protein', 'RBD', 'genetic diversity', 'non-synonymous mutations', 'recurrent mutations', 'emergence', 'natural selection', 'viral transmission', 'Phylogenetic tree', 'viral replication', 'nsp3', 'nsp2', 'intergenomic introgression', 'adaptation', 'viral pathogenicity', 'codon usage', 'elevated synonymous mutations', 'amino acid substitutions', 'spike gene', 'neutral evolution', 'haplotype', 'synonymous mutations', 'missense mutation frequencies', 'conservative inframe deletions', 'recurrent deletions', 'envelope protein gene orf3', 'frameshift deletions', 'in-frame deletions', 'surface glycoprotein S gene', 'orf1ab polyprotein', 'single-stranded RNA genome', 'missense mutations']		tensor(185)	0.6997822589182661
40	What are the impacts of COVID-19 among African-Americans that differ from the rest of the U.S. population?	Structural and Evolutionary Analysis Indicate that the SARS-CoV-2 Mpro is an Inconvenient Target for Small-Molecule Inhibitors Design	[CLS] what are the impacts of covid - 19 among african - americans that differ from the rest of the u . s . population ? [SEP] obtained . clustal omega 51 was used to prepare an alignment of those sequences . comulator 29 was then employed to calculate the correlation between amino acids and based on the results , groups of positions in sars - cov mpro sequence were selected , whose amino acid occurrences strongly depended on each other . [SEP]	there are some differences in the occurrence of accessory proteins	['Socioeconmic Disparities', 'Incrementanl Risk', 'Social distancing', 'Occupational Risk', 'Death Percentage', 'CDC COVID-NET', 'Insectionality of Factors']		tensor(993)	0.8521528856180717
41	Does Vitamin D impact COVID-19 prevention and treatment?	Glycosaminoglycan binding motif at S1/S2 proteolytic cleavage site on spike glycoprotein may facilitate novel coronavirus (SARS-CoV-2) host cell entry	[CLS] does vitamin d impact covid - 19 prevention and treatment ? [SEP] . a hexasaccharide was chosen as being sufficiently long to represent a typical gag length found in protein co - complexes [ 36 ] and to avoid introducing so many degrees of internal flexibility that the efficiency of the docking conformational search algorithm was impaired . docking was performed using a version of vina - carb [ 21 ] that has been modified to improve its performance for gags . a grid box with dimensions ( x = 190 , y = 223 , z = 184 a ) was placed at the geometric center the protein enclosing its entire surface . docking was performed with default values , with the following exceptions : exhaustiveness = 80 , chi _ cutoff = 2 , and chi _ coeff = 0 . 5 . all sulfate and hydroxyl groups and glycosidic torsion angles were treated as flexible , resulting in 83 ligand poses . [SEP]	carbohydrate - based covid - 19 therapeutic development	[]		tensor(911)	0.6179614794340665
42	How has the COVID-19 pandemic impacted violence in society, including violent crimes?	Randomized, double-blind, placebo-controlled clinical trial to assess the safety and effectiveness of a novel dual-action oral topical formulation against upper respiratory infections	[CLS] how has the covid - 19 pandemic impacted violence in society , including violent crimes ? [SEP] arms - i is safe and well - tolerated , and it reduces influenza symptoms . this product has the potential to prevent viral upper respiratory tract infections . further clinical development of this novel product is warranted . [SEP]	violence in society , including violent crimes	[]		tensor(31)	0.93803833852169
43	How much impact do masks have on preventing the spread of the COVID-19?	‘A monstrous threat’: how a state of exception turns into a ‘new normal’	[CLS] how much impact do masks have on preventing the spread of the covid - 19 ? [SEP] this article explores the factors that helped covid - 19 to become a ‘ monstrous threat ’ to humanity , which legitimises significant restrictions to people ’ s freedom and is justified by the ethics to keep everyone safe it analyses how rigid means increase old inequalities and produce secondary risks and significant side - effects and demonstrates how , with social and economic costs soaring , governments seek ways back – not to the old normal – but new social practices and attitudes towards infectious diseases , thereby transforming the state of exception into a ‘ new normal ’ [SEP]	rigid means increase old inequalities and produce secondary risks and significant side - effects	[]		tensor(147)	0.8436328070436538
44	How has the COVID-19 pandemic impacted mental health?	Simple Economical Solution for Personal Protection Equipment (Face Mask/Shield) for Health Care Staff During COVID 19	[CLS] how has the covid - 19 pandemic impacted mental health ? [SEP] and face shields by use of ohp transparent sheet and the routine masks will help to tide over the crises of the mask shortage as well as serve as a ppe . funding this study was not financially supported from external sourcesconflict of interest all authors declare that there is no conflict of interest . [SEP]	redistribution of manpower and resources to critically meet the current and anticipated hospital service needs	['Interpersonal conflict', 'Lifestyle change', 'Hopelessness', 'Mental health disturbances', 'Lack of social support', 'Mental health services accessibility', 'Coping', 'Anger', 'Paranoia', 'Grief', 'Suicidal ideation', 'Somatic symptoms', 'Social isolation', 'Fear', 'Panic', 'Social distancing', 'Stress', 'Insomnia', 'Anxiety', 'Depression', 'Post-Traumatic Stress Disorder']		tensor(992)	0.7924626452724329
